%YAML 1.1
%TAG !u! tag:unity3d.com,2011:
--- !u!1 &1745013971601346913
GameObject:
  m_ObjectHideFlags: 0
  m_CorrespondingSourceObject: {fileID: 0}
  m_PrefabInstance: {fileID: 0}
  m_PrefabAsset: {fileID: 0}
  serializedVersion: 6
  m_Component:
  - component: {fileID: 1044042301666043115}
  m_Layer: 0
  m_Name: p_Stall_01_snaps009
  m_TagString: Untagged
  m_Icon: {fileID: 0}
  m_NavMeshLayer: 0
  m_StaticEditorFlags: 118
  m_IsActive: 1
--- !u!4 &1044042301666043115
Transform:
  m_ObjectHideFlags: 0
  m_CorrespondingSourceObject: {fileID: 0}
  m_PrefabInstance: {fileID: 0}
  m_PrefabAsset: {fileID: 0}
  m_GameObject: {fileID: 1745013971601346913}
  m_LocalRotation: {x: -0, y: -0, z: -0, w: 1}
  m_LocalPosition: {x: 0, y: 0, z: 0}
  m_LocalScale: {x: 1, y: 1, z: 1}
  m_Children:
  - {fileID: 2750678588137356782}
  m_Father: {fileID: 0}
  m_RootOrder: 0
  m_LocalEulerAnglesHint: {x: 0, y: 0, z: 0}
--- !u!1 &8199094229327798172
GameObject:
  m_ObjectHideFlags: 0
  m_CorrespondingSourceObject: {fileID: 0}
  m_PrefabInstance: {fileID: 0}
  m_PrefabAsset: {fileID: 0}
  serializedVersion: 6
  m_Component:
  - component: {fileID: 2750678588137356782}
  m_Layer: 0
  m_Name: structure
  m_TagString: Untagged
  m_Icon: {fileID: 0}
  m_NavMeshLayer: 0
  m_StaticEditorFlags: 8
  m_IsActive: 1
--- !u!4 &2750678588137356782
Transform:
  m_ObjectHideFlags: 0
  m_CorrespondingSourceObject: {fileID: 0}
  m_PrefabInstance: {fileID: 0}
  m_PrefabAsset: {fileID: 0}
  m_GameObject: {fileID: 8199094229327798172}
  m_LocalRotation: {x: 0, y: 0, z: 0, w: 1}
  m_LocalPosition: {x: 0, y: 0, z: 0}
  m_LocalScale: {x: 1, y: 1, z: 1}
  m_Children:
  - {fileID: 4648168213463925915}
  - {fileID: 1414976007343486852}
  - {fileID: 1414976007477428060}
  - {fileID: 1414976008535223060}
  - {fileID: 1414976008547055102}
  - {fileID: 1414976009137200693}
  - {fileID: 1414976008107640801}
  - {fileID: 1414976008117442138}
  - {fileID: 1414976009216312323}
  - {fileID: 8176675132456158495}
  - {fileID: 4721039397409487668}
  - {fileID: 4721039397525509047}
  - {fileID: 4721039397390565040}
  - {fileID: 4721039398430453662}
  - {fileID: 6798919452845221812}
  - {fileID: 6798919452359881749}
  - {fileID: 6798919453243575338}
  - {fileID: 4721039398963569335}
  - {fileID: 4721039398602018585}
  - {fileID: 4721039397917996765}
  - {fileID: 4721039398631279027}
  - {fileID: 4721039397427893631}
  - {fileID: 8176675132441362587}
  - {fileID: 8518760947764971272}
  - {fileID: 8518760948396350866}
  - {fileID: 633734789537631923}
  - {fileID: 5414761061088147482}
  - {fileID: 8518760947783926412}
  - {fileID: 5414761061073517982}
  - {fileID: 3927814280706923242}
  - {fileID: 3927814281057978200}
  - {fileID: 7414665425206970534}
  m_Father: {fileID: 1044042301666043115}
  m_RootOrder: 0
  m_LocalEulerAnglesHint: {x: 0, y: 0, z: 0}
--- !u!1001 &7134597
PrefabInstance:
  m_ObjectHideFlags: 0
  serializedVersion: 2
  m_Modification:
    m_TransformParent: {fileID: 2750678588137356782}
    m_Modifications:
    - target: {fileID: 3927814280708447055, guid: 7594ca1e3ac25c141b2bf15faddbc90c,
        type: 3}
      propertyPath: m_Name
      value: M_md_Stall3_1m_01_snaps009
      objectReference: {fileID: 0}
    - target: {fileID: 3927814280708278127, guid: 7594ca1e3ac25c141b2bf15faddbc90c,
        type: 3}
      propertyPath: m_LocalPosition.x
      value: -65.799995
      objectReference: {fileID: 0}
    - target: {fileID: 3927814280708278127, guid: 7594ca1e3ac25c141b2bf15faddbc90c,
        type: 3}
      propertyPath: m_LocalPosition.y
      value: 2.2999992
      objectReference: {fileID: 0}
    - target: {fileID: 3927814280708278127, guid: 7594ca1e3ac25c141b2bf15faddbc90c,
        type: 3}
      propertyPath: m_LocalPosition.z
      value: -88.90001
      objectReference: {fileID: 0}
    - target: {fileID: 3927814280708278127, guid: 7594ca1e3ac25c141b2bf15faddbc90c,
        type: 3}
      propertyPath: m_LocalRotation.x
      value: -0
      objectReference: {fileID: 0}
    - target: {fileID: 3927814280708278127, guid: 7594ca1e3ac25c141b2bf15faddbc90c,
        type: 3}
      propertyPath: m_LocalRotation.y
      value: 1
      objectReference: {fileID: 0}
    - target: {fileID: 3927814280708278127, guid: 7594ca1e3ac25c141b2bf15faddbc90c,
        type: 3}
      propertyPath: m_LocalRotation.z
      value: -0
      objectReference: {fileID: 0}
    - target: {fileID: 3927814280708278127, guid: 7594ca1e3ac25c141b2bf15faddbc90c,
        type: 3}
      propertyPath: m_LocalRotation.w
      value: 0.0000004172325
      objectReference: {fileID: 0}
    - target: {fileID: 3927814280708278127, guid: 7594ca1e3ac25c141b2bf15faddbc90c,
        type: 3}
      propertyPath: m_RootOrder
      value: 29
      objectReference: {fileID: 0}
    - target: {fileID: 3927814280708278127, guid: 7594ca1e3ac25c141b2bf15faddbc90c,
        type: 3}
      propertyPath: m_LocalEulerAnglesHint.x
      value: 0
      objectReference: {fileID: 0}
    - target: {fileID: 3927814280708278127, guid: 7594ca1e3ac25c141b2bf15faddbc90c,
        type: 3}
      propertyPath: m_LocalEulerAnglesHint.y
      value: 0
      objectReference: {fileID: 0}
    - target: {fileID: 3927814280708278127, guid: 7594ca1e3ac25c141b2bf15faddbc90c,
        type: 3}
      propertyPath: m_LocalEulerAnglesHint.z
      value: 0
      objectReference: {fileID: 0}
    m_RemovedComponents: []
  m_SourcePrefab: {fileID: 100100000, guid: 7594ca1e3ac25c141b2bf15faddbc90c, type: 3}
--- !u!4 &3927814280706923242 stripped
Transform:
  m_CorrespondingSourceObject: {fileID: 3927814280708278127, guid: 7594ca1e3ac25c141b2bf15faddbc90c,
    type: 3}
  m_PrefabInstance: {fileID: 7134597}
  m_PrefabAsset: {fileID: 0}
--- !u!1001 &9462505
PrefabInstance:
  m_ObjectHideFlags: 0
  serializedVersion: 2
  m_Modification:
    m_TransformParent: {fileID: 2750678588137356782}
    m_Modifications:
    - target: {fileID: 6798919453250974435, guid: 7bf67ba02a1b881499fefd8e70d45e31,
        type: 3}
      propertyPath: m_Name
      value: M_md_StallWall_4m_02_snaps009
      objectReference: {fileID: 0}
    - target: {fileID: 6798919453250940611, guid: 7bf67ba02a1b881499fefd8e70d45e31,
        type: 3}
      propertyPath: m_LocalPosition.x
      value: -67.849976
      objectReference: {fileID: 0}
    - target: {fileID: 6798919453250940611, guid: 7bf67ba02a1b881499fefd8e70d45e31,
        type: 3}
      propertyPath: m_LocalPosition.y
      value: 2.2999992
      objectReference: {fileID: 0}
    - target: {fileID: 6798919453250940611, guid: 7bf67ba02a1b881499fefd8e70d45e31,
        type: 3}
      propertyPath: m_LocalPosition.z
      value: -85.010025
      objectReference: {fileID: 0}
    - target: {fileID: 6798919453250940611, guid: 7bf67ba02a1b881499fefd8e70d45e31,
        type: 3}
      propertyPath: m_LocalRotation.x
      value: -0
      objectReference: {fileID: 0}
    - target: {fileID: 6798919453250940611, guid: 7bf67ba02a1b881499fefd8e70d45e31,
        type: 3}
      propertyPath: m_LocalRotation.y
      value: 0.0000002682209
      objectReference: {fileID: 0}
    - target: {fileID: 6798919453250940611, guid: 7bf67ba02a1b881499fefd8e70d45e31,
        type: 3}
      propertyPath: m_LocalRotation.z
      value: -0
      objectReference: {fileID: 0}
    - target: {fileID: 6798919453250940611, guid: 7bf67ba02a1b881499fefd8e70d45e31,
        type: 3}
      propertyPath: m_LocalRotation.w
      value: -1
      objectReference: {fileID: 0}
    - target: {fileID: 6798919453250940611, guid: 7bf67ba02a1b881499fefd8e70d45e31,
        type: 3}
      propertyPath: m_RootOrder
      value: 16
      objectReference: {fileID: 0}
    - target: {fileID: 6798919453250940611, guid: 7bf67ba02a1b881499fefd8e70d45e31,
        type: 3}
      propertyPath: m_LocalEulerAnglesHint.x
      value: 0
      objectReference: {fileID: 0}
    - target: {fileID: 6798919453250940611, guid: 7bf67ba02a1b881499fefd8e70d45e31,
        type: 3}
      propertyPath: m_LocalEulerAnglesHint.y
      value: 0
      objectReference: {fileID: 0}
    - target: {fileID: 6798919453250940611, guid: 7bf67ba02a1b881499fefd8e70d45e31,
        type: 3}
      propertyPath: m_LocalEulerAnglesHint.z
      value: 0
      objectReference: {fileID: 0}
    m_RemovedComponents: []
  m_SourcePrefab: {fileID: 100100000, guid: 7bf67ba02a1b881499fefd8e70d45e31, type: 3}
--- !u!4 &6798919453243575338 stripped
Transform:
  m_CorrespondingSourceObject: {fileID: 6798919453250940611, guid: 7bf67ba02a1b881499fefd8e70d45e31,
    type: 3}
  m_PrefabInstance: {fileID: 9462505}
  m_PrefabAsset: {fileID: 0}
--- !u!1001 &11368293
PrefabInstance:
  m_ObjectHideFlags: 0
  serializedVersion: 2
  m_Modification:
    m_TransformParent: {fileID: 2750678588137356782}
    m_Modifications:
    - target: {fileID: 1414976009148069232, guid: 7a2cd66a7fb7d0c429258345c00e3402,
        type: 3}
      propertyPath: m_Name
      value: M_md_StallRoof2_1m_01_snaps009
      objectReference: {fileID: 0}
    - target: {fileID: 1414976009148557648, guid: 7a2cd66a7fb7d0c429258345c00e3402,
        type: 3}
      propertyPath: m_LocalPosition.x
      value: -65.82796
      objectReference: {fileID: 0}
    - target: {fileID: 1414976009148557648, guid: 7a2cd66a7fb7d0c429258345c00e3402,
        type: 3}
      propertyPath: m_LocalPosition.y
      value: 4.9489975
      objectReference: {fileID: 0}
    - target: {fileID: 1414976009148557648, guid: 7a2cd66a7fb7d0c429258345c00e3402,
        type: 3}
      propertyPath: m_LocalPosition.z
      value: -88.89603
      objectReference: {fileID: 0}
    - target: {fileID: 1414976009148557648, guid: 7a2cd66a7fb7d0c429258345c00e3402,
        type: 3}
      propertyPath: m_LocalRotation.x
      value: -0
      objectReference: {fileID: 0}
    - target: {fileID: 1414976009148557648, guid: 7a2cd66a7fb7d0c429258345c00e3402,
        type: 3}
      propertyPath: m_LocalRotation.y
      value: -1
      objectReference: {fileID: 0}
    - target: {fileID: 1414976009148557648, guid: 7a2cd66a7fb7d0c429258345c00e3402,
        type: 3}
      propertyPath: m_LocalRotation.z
      value: -0
      objectReference: {fileID: 0}
    - target: {fileID: 1414976009148557648, guid: 7a2cd66a7fb7d0c429258345c00e3402,
        type: 3}
      propertyPath: m_LocalRotation.w
      value: 0.0000019073484
      objectReference: {fileID: 0}
    - target: {fileID: 1414976009148557648, guid: 7a2cd66a7fb7d0c429258345c00e3402,
        type: 3}
      propertyPath: m_RootOrder
      value: 5
      objectReference: {fileID: 0}
    - target: {fileID: 1414976009148557648, guid: 7a2cd66a7fb7d0c429258345c00e3402,
        type: 3}
      propertyPath: m_LocalEulerAnglesHint.x
      value: 0
      objectReference: {fileID: 0}
    - target: {fileID: 1414976009148557648, guid: 7a2cd66a7fb7d0c429258345c00e3402,
        type: 3}
      propertyPath: m_LocalEulerAnglesHint.y
      value: 0
      objectReference: {fileID: 0}
    - target: {fileID: 1414976009148557648, guid: 7a2cd66a7fb7d0c429258345c00e3402,
        type: 3}
      propertyPath: m_LocalEulerAnglesHint.z
      value: 0
      objectReference: {fileID: 0}
    m_RemovedComponents: []
  m_SourcePrefab: {fileID: 100100000, guid: 7a2cd66a7fb7d0c429258345c00e3402, type: 3}
--- !u!4 &1414976009137200693 stripped
Transform:
  m_CorrespondingSourceObject: {fileID: 1414976009148557648, guid: 7a2cd66a7fb7d0c429258345c00e3402,
    type: 3}
  m_PrefabInstance: {fileID: 11368293}
  m_PrefabAsset: {fileID: 0}
--- !u!1001 &11884295
PrefabInstance:
  m_ObjectHideFlags: 0
  serializedVersion: 2
  m_Modification:
    m_TransformParent: {fileID: 2750678588137356782}
    m_Modifications:
    - target: {fileID: 633734789542725012, guid: 6db149942eda7da449f155b0524ca187,
        type: 3}
      propertyPath: m_Name
      value: M_md_Stall3_90cnr_01_snaps009
      objectReference: {fileID: 0}
    - target: {fileID: 633734789543221684, guid: 6db149942eda7da449f155b0524ca187,
        type: 3}
      propertyPath: m_LocalPosition.x
      value: -65.79997
      objectReference: {fileID: 0}
    - target: {fileID: 633734789543221684, guid: 6db149942eda7da449f155b0524ca187,
        type: 3}
      propertyPath: m_LocalPosition.y
      value: 2.2999992
      objectReference: {fileID: 0}
    - target: {fileID: 633734789543221684, guid: 6db149942eda7da449f155b0524ca187,
        type: 3}
      propertyPath: m_LocalPosition.z
      value: -82.900024
      objectReference: {fileID: 0}
    - target: {fileID: 633734789543221684, guid: 6db149942eda7da449f155b0524ca187,
        type: 3}
      propertyPath: m_LocalRotation.x
      value: -0
      objectReference: {fileID: 0}
    - target: {fileID: 633734789543221684, guid: 6db149942eda7da449f155b0524ca187,
        type: 3}
      propertyPath: m_LocalRotation.y
      value: -1
      objectReference: {fileID: 0}
    - target: {fileID: 633734789543221684, guid: 6db149942eda7da449f155b0524ca187,
        type: 3}
      propertyPath: m_LocalRotation.z
      value: -0
      objectReference: {fileID: 0}
    - target: {fileID: 633734789543221684, guid: 6db149942eda7da449f155b0524ca187,
        type: 3}
      propertyPath: m_LocalRotation.w
      value: -0.0000016987321
      objectReference: {fileID: 0}
    - target: {fileID: 633734789543221684, guid: 6db149942eda7da449f155b0524ca187,
        type: 3}
      propertyPath: m_RootOrder
      value: 25
      objectReference: {fileID: 0}
    - target: {fileID: 633734789543221684, guid: 6db149942eda7da449f155b0524ca187,
        type: 3}
      propertyPath: m_LocalEulerAnglesHint.x
      value: 0
      objectReference: {fileID: 0}
    - target: {fileID: 633734789543221684, guid: 6db149942eda7da449f155b0524ca187,
        type: 3}
      propertyPath: m_LocalEulerAnglesHint.y
      value: 0
      objectReference: {fileID: 0}
    - target: {fileID: 633734789543221684, guid: 6db149942eda7da449f155b0524ca187,
        type: 3}
      propertyPath: m_LocalEulerAnglesHint.z
      value: 0
      objectReference: {fileID: 0}
    m_RemovedComponents: []
  m_SourcePrefab: {fileID: 100100000, guid: 6db149942eda7da449f155b0524ca187, type: 3}
--- !u!4 &633734789537631923 stripped
Transform:
  m_CorrespondingSourceObject: {fileID: 633734789543221684, guid: 6db149942eda7da449f155b0524ca187,
    type: 3}
  m_PrefabInstance: {fileID: 11884295}
  m_PrefabAsset: {fileID: 0}
--- !u!1001 &90537920
PrefabInstance:
  m_ObjectHideFlags: 0
  serializedVersion: 2
  m_Modification:
    m_TransformParent: {fileID: 2750678588137356782}
    m_Modifications:
    - target: {fileID: 4721039399011877207, guid: 5c172cf91ff94b242ac5be12a47c151a,
        type: 3}
      propertyPath: m_Name
      value: M_md_StallRoofPanel_2x2_01_snaps009
      objectReference: {fileID: 0}
    - target: {fileID: 4721039399012113783, guid: 5c172cf91ff94b242ac5be12a47c151a,
        type: 3}
      propertyPath: m_LocalPosition.x
      value: -68.69997
      objectReference: {fileID: 0}
    - target: {fileID: 4721039399012113783, guid: 5c172cf91ff94b242ac5be12a47c151a,
        type: 3}
      propertyPath: m_LocalPosition.y
      value: 5.0999985
      objectReference: {fileID: 0}
    - target: {fileID: 4721039399012113783, guid: 5c172cf91ff94b242ac5be12a47c151a,
        type: 3}
      propertyPath: m_LocalPosition.z
      value: -88.90003
      objectReference: {fileID: 0}
    - target: {fileID: 4721039399012113783, guid: 5c172cf91ff94b242ac5be12a47c151a,
        type: 3}
      propertyPath: m_LocalRotation.x
      value: -0
      objectReference: {fileID: 0}
    - target: {fileID: 4721039399012113783, guid: 5c172cf91ff94b242ac5be12a47c151a,
        type: 3}
      propertyPath: m_LocalRotation.y
      value: 1
      objectReference: {fileID: 0}
    - target: {fileID: 4721039399012113783, guid: 5c172cf91ff94b242ac5be12a47c151a,
        type: 3}
      propertyPath: m_LocalRotation.z
      value: -0
      objectReference: {fileID: 0}
    - target: {fileID: 4721039399012113783, guid: 5c172cf91ff94b242ac5be12a47c151a,
        type: 3}
      propertyPath: m_LocalRotation.w
      value: -0.00000008940697
      objectReference: {fileID: 0}
    - target: {fileID: 4721039399012113783, guid: 5c172cf91ff94b242ac5be12a47c151a,
        type: 3}
      propertyPath: m_RootOrder
      value: 17
      objectReference: {fileID: 0}
    - target: {fileID: 4721039399012113783, guid: 5c172cf91ff94b242ac5be12a47c151a,
        type: 3}
      propertyPath: m_LocalEulerAnglesHint.x
      value: 0
      objectReference: {fileID: 0}
    - target: {fileID: 4721039399012113783, guid: 5c172cf91ff94b242ac5be12a47c151a,
        type: 3}
      propertyPath: m_LocalEulerAnglesHint.y
      value: 0
      objectReference: {fileID: 0}
    - target: {fileID: 4721039399012113783, guid: 5c172cf91ff94b242ac5be12a47c151a,
        type: 3}
      propertyPath: m_LocalEulerAnglesHint.z
      value: 0
      objectReference: {fileID: 0}
    m_RemovedComponents: []
  m_SourcePrefab: {fileID: 100100000, guid: 5c172cf91ff94b242ac5be12a47c151a, type: 3}
--- !u!4 &4721039398963569335 stripped
Transform:
  m_CorrespondingSourceObject: {fileID: 4721039399012113783, guid: 5c172cf91ff94b242ac5be12a47c151a,
    type: 3}
  m_PrefabInstance: {fileID: 90537920}
  m_PrefabAsset: {fileID: 0}
--- !u!1001 &168869461
PrefabInstance:
  m_ObjectHideFlags: 0
  serializedVersion: 2
  m_Modification:
    m_TransformParent: {fileID: 2750678588137356782}
    m_Modifications:
    - target: {fileID: 8518760947617538297, guid: 4803123f45a0a6c4e92bd3cbb7c10e92,
        type: 3}
      propertyPath: m_Name
      value: M_md_Stall3_end_02_snaps009
      objectReference: {fileID: 0}
    - target: {fileID: 8518760947617184985, guid: 4803123f45a0a6c4e92bd3cbb7c10e92,
        type: 3}
      propertyPath: m_LocalPosition.x
      value: -65.799965
      objectReference: {fileID: 0}
    - target: {fileID: 8518760947617184985, guid: 4803123f45a0a6c4e92bd3cbb7c10e92,
        type: 3}
      propertyPath: m_LocalPosition.y
      value: 2.2999992
      objectReference: {fileID: 0}
    - target: {fileID: 8518760947617184985, guid: 4803123f45a0a6c4e92bd3cbb7c10e92,
        type: 3}
      propertyPath: m_LocalPosition.z
      value: -88.78803
      objectReference: {fileID: 0}
    - target: {fileID: 8518760947617184985, guid: 4803123f45a0a6c4e92bd3cbb7c10e92,
        type: 3}
      propertyPath: m_LocalRotation.x
      value: -0
      objectReference: {fileID: 0}
    - target: {fileID: 8518760947617184985, guid: 4803123f45a0a6c4e92bd3cbb7c10e92,
        type: 3}
      propertyPath: m_LocalRotation.y
      value: -1
      objectReference: {fileID: 0}
    - target: {fileID: 8518760947617184985, guid: 4803123f45a0a6c4e92bd3cbb7c10e92,
        type: 3}
      propertyPath: m_LocalRotation.z
      value: -0
      objectReference: {fileID: 0}
    - target: {fileID: 8518760947617184985, guid: 4803123f45a0a6c4e92bd3cbb7c10e92,
        type: 3}
      propertyPath: m_LocalRotation.w
      value: -0.0000030994415
      objectReference: {fileID: 0}
    - target: {fileID: 8518760947617184985, guid: 4803123f45a0a6c4e92bd3cbb7c10e92,
        type: 3}
      propertyPath: m_RootOrder
      value: 27
      objectReference: {fileID: 0}
    - target: {fileID: 8518760947617184985, guid: 4803123f45a0a6c4e92bd3cbb7c10e92,
        type: 3}
      propertyPath: m_LocalEulerAnglesHint.x
      value: 0
      objectReference: {fileID: 0}
    - target: {fileID: 8518760947617184985, guid: 4803123f45a0a6c4e92bd3cbb7c10e92,
        type: 3}
      propertyPath: m_LocalEulerAnglesHint.y
      value: 0
      objectReference: {fileID: 0}
    - target: {fileID: 8518760947617184985, guid: 4803123f45a0a6c4e92bd3cbb7c10e92,
        type: 3}
      propertyPath: m_LocalEulerAnglesHint.z
      value: 0
      objectReference: {fileID: 0}
    m_RemovedComponents: []
  m_SourcePrefab: {fileID: 100100000, guid: 4803123f45a0a6c4e92bd3cbb7c10e92, type: 3}
--- !u!4 &8518760947783926412 stripped
Transform:
  m_CorrespondingSourceObject: {fileID: 8518760947617184985, guid: 4803123f45a0a6c4e92bd3cbb7c10e92,
    type: 3}
  m_PrefabInstance: {fileID: 168869461}
  m_PrefabAsset: {fileID: 0}
--- !u!1001 &187792337
PrefabInstance:
  m_ObjectHideFlags: 0
  serializedVersion: 2
  m_Modification:
    m_TransformParent: {fileID: 2750678588137356782}
    m_Modifications:
    - target: {fileID: 8518760947617538297, guid: 4803123f45a0a6c4e92bd3cbb7c10e92,
        type: 3}
      propertyPath: m_Name
      value: M_md_Stall3_end_02_snaps009
      objectReference: {fileID: 0}
    - target: {fileID: 8518760947617184985, guid: 4803123f45a0a6c4e92bd3cbb7c10e92,
        type: 3}
      propertyPath: m_LocalPosition.x
      value: -67.89998
      objectReference: {fileID: 0}
    - target: {fileID: 8518760947617184985, guid: 4803123f45a0a6c4e92bd3cbb7c10e92,
        type: 3}
      propertyPath: m_LocalPosition.y
      value: 2.2999992
      objectReference: {fileID: 0}
    - target: {fileID: 8518760947617184985, guid: 4803123f45a0a6c4e92bd3cbb7c10e92,
        type: 3}
      propertyPath: m_LocalPosition.z
      value: -82.900024
      objectReference: {fileID: 0}
    - target: {fileID: 8518760947617184985, guid: 4803123f45a0a6c4e92bd3cbb7c10e92,
        type: 3}
      propertyPath: m_LocalRotation.x
      value: -0
      objectReference: {fileID: 0}
    - target: {fileID: 8518760947617184985, guid: 4803123f45a0a6c4e92bd3cbb7c10e92,
        type: 3}
      propertyPath: m_LocalRotation.y
      value: -0.70710564
      objectReference: {fileID: 0}
    - target: {fileID: 8518760947617184985, guid: 4803123f45a0a6c4e92bd3cbb7c10e92,
        type: 3}
      propertyPath: m_LocalRotation.z
      value: -0
      objectReference: {fileID: 0}
    - target: {fileID: 8518760947617184985, guid: 4803123f45a0a6c4e92bd3cbb7c10e92,
        type: 3}
      propertyPath: m_LocalRotation.w
      value: -0.70710796
      objectReference: {fileID: 0}
    - target: {fileID: 8518760947617184985, guid: 4803123f45a0a6c4e92bd3cbb7c10e92,
        type: 3}
      propertyPath: m_RootOrder
      value: 23
      objectReference: {fileID: 0}
    - target: {fileID: 8518760947617184985, guid: 4803123f45a0a6c4e92bd3cbb7c10e92,
        type: 3}
      propertyPath: m_LocalEulerAnglesHint.x
      value: 0
      objectReference: {fileID: 0}
    - target: {fileID: 8518760947617184985, guid: 4803123f45a0a6c4e92bd3cbb7c10e92,
        type: 3}
      propertyPath: m_LocalEulerAnglesHint.y
      value: 0
      objectReference: {fileID: 0}
    - target: {fileID: 8518760947617184985, guid: 4803123f45a0a6c4e92bd3cbb7c10e92,
        type: 3}
      propertyPath: m_LocalEulerAnglesHint.z
      value: 0
      objectReference: {fileID: 0}
    m_RemovedComponents: []
  m_SourcePrefab: {fileID: 100100000, guid: 4803123f45a0a6c4e92bd3cbb7c10e92, type: 3}
--- !u!4 &8518760947764971272 stripped
Transform:
  m_CorrespondingSourceObject: {fileID: 8518760947617184985, guid: 4803123f45a0a6c4e92bd3cbb7c10e92,
    type: 3}
  m_PrefabInstance: {fileID: 187792337}
  m_PrefabAsset: {fileID: 0}
--- !u!1001 &234237267
PrefabInstance:
  m_ObjectHideFlags: 0
  serializedVersion: 2
  m_Modification:
    m_TransformParent: {fileID: 2750678588137356782}
    m_Modifications:
    - target: {fileID: 1414976009148069232, guid: 7a2cd66a7fb7d0c429258345c00e3402,
        type: 3}
      propertyPath: m_Name
      value: M_md_StallRoof2_1m_01_snaps009
      objectReference: {fileID: 0}
    - target: {fileID: 1414976009148557648, guid: 7a2cd66a7fb7d0c429258345c00e3402,
        type: 3}
      propertyPath: m_LocalPosition.x
      value: -66.82797
      objectReference: {fileID: 0}
    - target: {fileID: 1414976009148557648, guid: 7a2cd66a7fb7d0c429258345c00e3402,
        type: 3}
      propertyPath: m_LocalPosition.y
      value: 4.9489975
      objectReference: {fileID: 0}
    - target: {fileID: 1414976009148557648, guid: 7a2cd66a7fb7d0c429258345c00e3402,
        type: 3}
      propertyPath: m_LocalPosition.z
      value: -82.89602
      objectReference: {fileID: 0}
    - target: {fileID: 1414976009148557648, guid: 7a2cd66a7fb7d0c429258345c00e3402,
        type: 3}
      propertyPath: m_LocalRotation.x
      value: -0
      objectReference: {fileID: 0}
    - target: {fileID: 1414976009148557648, guid: 7a2cd66a7fb7d0c429258345c00e3402,
        type: 3}
      propertyPath: m_LocalRotation.y
      value: -0.7071078
      objectReference: {fileID: 0}
    - target: {fileID: 1414976009148557648, guid: 7a2cd66a7fb7d0c429258345c00e3402,
        type: 3}
      propertyPath: m_LocalRotation.z
      value: -0
      objectReference: {fileID: 0}
    - target: {fileID: 1414976009148557648, guid: 7a2cd66a7fb7d0c429258345c00e3402,
        type: 3}
      propertyPath: m_LocalRotation.w
      value: -0.7071058
      objectReference: {fileID: 0}
    - target: {fileID: 1414976009148557648, guid: 7a2cd66a7fb7d0c429258345c00e3402,
        type: 3}
      propertyPath: m_RootOrder
      value: 8
      objectReference: {fileID: 0}
    - target: {fileID: 1414976009148557648, guid: 7a2cd66a7fb7d0c429258345c00e3402,
        type: 3}
      propertyPath: m_LocalEulerAnglesHint.x
      value: 0
      objectReference: {fileID: 0}
    - target: {fileID: 1414976009148557648, guid: 7a2cd66a7fb7d0c429258345c00e3402,
        type: 3}
      propertyPath: m_LocalEulerAnglesHint.y
      value: 0
      objectReference: {fileID: 0}
    - target: {fileID: 1414976009148557648, guid: 7a2cd66a7fb7d0c429258345c00e3402,
        type: 3}
      propertyPath: m_LocalEulerAnglesHint.z
      value: 0
      objectReference: {fileID: 0}
    m_RemovedComponents: []
  m_SourcePrefab: {fileID: 100100000, guid: 7a2cd66a7fb7d0c429258345c00e3402, type: 3}
--- !u!4 &1414976009216312323 stripped
Transform:
  m_CorrespondingSourceObject: {fileID: 1414976009148557648, guid: 7a2cd66a7fb7d0c429258345c00e3402,
    type: 3}
  m_PrefabInstance: {fileID: 234237267}
  m_PrefabAsset: {fileID: 0}
--- !u!1001 &393740343
PrefabInstance:
  m_ObjectHideFlags: 0
  serializedVersion: 2
  m_Modification:
    m_TransformParent: {fileID: 2750678588137356782}
    m_Modifications:
    - target: {fileID: 3927814280708447055, guid: 7594ca1e3ac25c141b2bf15faddbc90c,
        type: 3}
      propertyPath: m_Name
      value: M_md_Stall3_1m_01_snaps009
      objectReference: {fileID: 0}
    - target: {fileID: 3927814280708278127, guid: 7594ca1e3ac25c141b2bf15faddbc90c,
        type: 3}
      propertyPath: m_LocalPosition.x
      value: -66.799995
      objectReference: {fileID: 0}
    - target: {fileID: 3927814280708278127, guid: 7594ca1e3ac25c141b2bf15faddbc90c,
        type: 3}
      propertyPath: m_LocalPosition.y
      value: 2.2999992
      objectReference: {fileID: 0}
    - target: {fileID: 3927814280708278127, guid: 7594ca1e3ac25c141b2bf15faddbc90c,
        type: 3}
      propertyPath: m_LocalPosition.z
      value: -82.9
      objectReference: {fileID: 0}
    - target: {fileID: 3927814280708278127, guid: 7594ca1e3ac25c141b2bf15faddbc90c,
        type: 3}
      propertyPath: m_LocalRotation.x
      value: -0
      objectReference: {fileID: 0}
    - target: {fileID: 3927814280708278127, guid: 7594ca1e3ac25c141b2bf15faddbc90c,
        type: 3}
      propertyPath: m_LocalRotation.y
      value: 0.7071066
      objectReference: {fileID: 0}
    - target: {fileID: 3927814280708278127, guid: 7594ca1e3ac25c141b2bf15faddbc90c,
        type: 3}
      propertyPath: m_LocalRotation.z
      value: -0
      objectReference: {fileID: 0}
    - target: {fileID: 3927814280708278127, guid: 7594ca1e3ac25c141b2bf15faddbc90c,
        type: 3}
      propertyPath: m_LocalRotation.w
      value: 0.707107
      objectReference: {fileID: 0}
    - target: {fileID: 3927814280708278127, guid: 7594ca1e3ac25c141b2bf15faddbc90c,
        type: 3}
      propertyPath: m_RootOrder
      value: 30
      objectReference: {fileID: 0}
    - target: {fileID: 3927814280708278127, guid: 7594ca1e3ac25c141b2bf15faddbc90c,
        type: 3}
      propertyPath: m_LocalEulerAnglesHint.x
      value: 0
      objectReference: {fileID: 0}
    - target: {fileID: 3927814280708278127, guid: 7594ca1e3ac25c141b2bf15faddbc90c,
        type: 3}
      propertyPath: m_LocalEulerAnglesHint.y
      value: 0
      objectReference: {fileID: 0}
    - target: {fileID: 3927814280708278127, guid: 7594ca1e3ac25c141b2bf15faddbc90c,
        type: 3}
      propertyPath: m_LocalEulerAnglesHint.z
      value: 0
      objectReference: {fileID: 0}
    m_RemovedComponents: []
  m_SourcePrefab: {fileID: 100100000, guid: 7594ca1e3ac25c141b2bf15faddbc90c, type: 3}
--- !u!4 &3927814281057978200 stripped
Transform:
  m_CorrespondingSourceObject: {fileID: 3927814280708278127, guid: 7594ca1e3ac25c141b2bf15faddbc90c,
    type: 3}
  m_PrefabInstance: {fileID: 393740343}
  m_PrefabAsset: {fileID: 0}
--- !u!1001 &418484846
PrefabInstance:
  m_ObjectHideFlags: 0
  serializedVersion: 2
  m_Modification:
    m_TransformParent: {fileID: 2750678588137356782}
    m_Modifications:
    - target: {fileID: 4721039399011877207, guid: 5c172cf91ff94b242ac5be12a47c151a,
        type: 3}
      propertyPath: m_Name
      value: M_md_StallRoofPanel_2x2_01_snaps009
      objectReference: {fileID: 0}
    - target: {fileID: 4721039399012113783, guid: 5c172cf91ff94b242ac5be12a47c151a,
        type: 3}
      propertyPath: m_LocalPosition.x
      value: -66.69996
      objectReference: {fileID: 0}
    - target: {fileID: 4721039399012113783, guid: 5c172cf91ff94b242ac5be12a47c151a,
        type: 3}
      propertyPath: m_LocalPosition.y
      value: 5.0999985
      objectReference: {fileID: 0}
    - target: {fileID: 4721039399012113783, guid: 5c172cf91ff94b242ac5be12a47c151a,
        type: 3}
      propertyPath: m_LocalPosition.z
      value: -88.90003
      objectReference: {fileID: 0}
    - target: {fileID: 4721039399012113783, guid: 5c172cf91ff94b242ac5be12a47c151a,
        type: 3}
      propertyPath: m_LocalRotation.x
      value: -0
      objectReference: {fileID: 0}
    - target: {fileID: 4721039399012113783, guid: 5c172cf91ff94b242ac5be12a47c151a,
        type: 3}
      propertyPath: m_LocalRotation.y
      value: 1
      objectReference: {fileID: 0}
    - target: {fileID: 4721039399012113783, guid: 5c172cf91ff94b242ac5be12a47c151a,
        type: 3}
      propertyPath: m_LocalRotation.z
      value: -0
      objectReference: {fileID: 0}
    - target: {fileID: 4721039399012113783, guid: 5c172cf91ff94b242ac5be12a47c151a,
        type: 3}
      propertyPath: m_LocalRotation.w
      value: -0.00000008940697
      objectReference: {fileID: 0}
    - target: {fileID: 4721039399012113783, guid: 5c172cf91ff94b242ac5be12a47c151a,
        type: 3}
      propertyPath: m_RootOrder
      value: 18
      objectReference: {fileID: 0}
    - target: {fileID: 4721039399012113783, guid: 5c172cf91ff94b242ac5be12a47c151a,
        type: 3}
      propertyPath: m_LocalEulerAnglesHint.x
      value: 0
      objectReference: {fileID: 0}
    - target: {fileID: 4721039399012113783, guid: 5c172cf91ff94b242ac5be12a47c151a,
        type: 3}
      propertyPath: m_LocalEulerAnglesHint.y
      value: 0
      objectReference: {fileID: 0}
    - target: {fileID: 4721039399012113783, guid: 5c172cf91ff94b242ac5be12a47c151a,
        type: 3}
      propertyPath: m_LocalEulerAnglesHint.z
      value: 0
      objectReference: {fileID: 0}
    m_RemovedComponents: []
  m_SourcePrefab: {fileID: 100100000, guid: 5c172cf91ff94b242ac5be12a47c151a, type: 3}
--- !u!4 &4721039398602018585 stripped
Transform:
  m_CorrespondingSourceObject: {fileID: 4721039399012113783, guid: 5c172cf91ff94b242ac5be12a47c151a,
    type: 3}
  m_PrefabInstance: {fileID: 418484846}
  m_PrefabAsset: {fileID: 0}
--- !u!1001 &448206020
PrefabInstance:
  m_ObjectHideFlags: 0
  serializedVersion: 2
  m_Modification:
    m_TransformParent: {fileID: 2750678588137356782}
    m_Modifications:
    - target: {fileID: 4721039399011877207, guid: 5c172cf91ff94b242ac5be12a47c151a,
        type: 3}
      propertyPath: m_Name
      value: M_md_StallRoofPanel_2x2_01_snaps009
      objectReference: {fileID: 0}
    - target: {fileID: 4721039399012113783, guid: 5c172cf91ff94b242ac5be12a47c151a,
        type: 3}
      propertyPath: m_LocalPosition.x
      value: -67.88997
      objectReference: {fileID: 0}
    - target: {fileID: 4721039399012113783, guid: 5c172cf91ff94b242ac5be12a47c151a,
        type: 3}
      propertyPath: m_LocalPosition.y
      value: 5.276
      objectReference: {fileID: 0}
    - target: {fileID: 4721039399012113783, guid: 5c172cf91ff94b242ac5be12a47c151a,
        type: 3}
      propertyPath: m_LocalPosition.z
      value: -84.690025
      objectReference: {fileID: 0}
    - target: {fileID: 4721039399012113783, guid: 5c172cf91ff94b242ac5be12a47c151a,
        type: 3}
      propertyPath: m_LocalRotation.x
      value: 0.00000008940697
      objectReference: {fileID: 0}
    - target: {fileID: 4721039399012113783, guid: 5c172cf91ff94b242ac5be12a47c151a,
        type: 3}
      propertyPath: m_LocalRotation.y
      value: -0.00000008940698
      objectReference: {fileID: 0}
    - target: {fileID: 4721039399012113783, guid: 5c172cf91ff94b242ac5be12a47c151a,
        type: 3}
      propertyPath: m_LocalRotation.z
      value: 1
      objectReference: {fileID: 0}
    - target: {fileID: 4721039399012113783, guid: 5c172cf91ff94b242ac5be12a47c151a,
        type: 3}
      propertyPath: m_LocalRotation.w
      value: 1.0658141e-14
      objectReference: {fileID: 0}
    - target: {fileID: 4721039399012113783, guid: 5c172cf91ff94b242ac5be12a47c151a,
        type: 3}
      propertyPath: m_RootOrder
      value: 20
      objectReference: {fileID: 0}
    - target: {fileID: 4721039399012113783, guid: 5c172cf91ff94b242ac5be12a47c151a,
        type: 3}
      propertyPath: m_LocalEulerAnglesHint.x
      value: 0
      objectReference: {fileID: 0}
    - target: {fileID: 4721039399012113783, guid: 5c172cf91ff94b242ac5be12a47c151a,
        type: 3}
      propertyPath: m_LocalEulerAnglesHint.y
      value: 0
      objectReference: {fileID: 0}
    - target: {fileID: 4721039399012113783, guid: 5c172cf91ff94b242ac5be12a47c151a,
        type: 3}
      propertyPath: m_LocalEulerAnglesHint.z
      value: 0
      objectReference: {fileID: 0}
    m_RemovedComponents: []
  m_SourcePrefab: {fileID: 100100000, guid: 5c172cf91ff94b242ac5be12a47c151a, type: 3}
--- !u!4 &4721039398631279027 stripped
Transform:
  m_CorrespondingSourceObject: {fileID: 4721039399012113783, guid: 5c172cf91ff94b242ac5be12a47c151a,
    type: 3}
  m_PrefabInstance: {fileID: 448206020}
  m_PrefabAsset: {fileID: 0}
--- !u!1001 &572545754
PrefabInstance:
  m_ObjectHideFlags: 0
  serializedVersion: 2
  m_Modification:
    m_TransformParent: {fileID: 2750678588137356782}
    m_Modifications:
    - target: {fileID: 5414761061641403236, guid: 33cbae7f72591044f916869faee1bb85,
        type: 3}
      propertyPath: m_Name
      value: M_md_Stall3_2m_01_snaps009
      objectReference: {fileID: 0}
    - target: {fileID: 5414761061641824068, guid: 33cbae7f72591044f916869faee1bb85,
        type: 3}
      propertyPath: m_LocalPosition.x
      value: -65.79997
      objectReference: {fileID: 0}
    - target: {fileID: 5414761061641824068, guid: 33cbae7f72591044f916869faee1bb85,
        type: 3}
      propertyPath: m_LocalPosition.y
      value: 2.2999992
      objectReference: {fileID: 0}
    - target: {fileID: 5414761061641824068, guid: 33cbae7f72591044f916869faee1bb85,
        type: 3}
      propertyPath: m_LocalPosition.z
      value: -87.90003
      objectReference: {fileID: 0}
    - target: {fileID: 5414761061641824068, guid: 33cbae7f72591044f916869faee1bb85,
        type: 3}
      propertyPath: m_LocalRotation.x
      value: -0
      objectReference: {fileID: 0}
    - target: {fileID: 5414761061641824068, guid: 33cbae7f72591044f916869faee1bb85,
        type: 3}
      propertyPath: m_LocalRotation.y
      value: 1
      objectReference: {fileID: 0}
    - target: {fileID: 5414761061641824068, guid: 33cbae7f72591044f916869faee1bb85,
        type: 3}
      propertyPath: m_LocalRotation.z
      value: -0
      objectReference: {fileID: 0}
    - target: {fileID: 5414761061641824068, guid: 33cbae7f72591044f916869faee1bb85,
        type: 3}
      propertyPath: m_LocalRotation.w
      value: -0.0000002682209
      objectReference: {fileID: 0}
    - target: {fileID: 5414761061641824068, guid: 33cbae7f72591044f916869faee1bb85,
        type: 3}
      propertyPath: m_RootOrder
      value: 28
      objectReference: {fileID: 0}
    - target: {fileID: 5414761061641824068, guid: 33cbae7f72591044f916869faee1bb85,
        type: 3}
      propertyPath: m_LocalEulerAnglesHint.x
      value: 0
      objectReference: {fileID: 0}
    - target: {fileID: 5414761061641824068, guid: 33cbae7f72591044f916869faee1bb85,
        type: 3}
      propertyPath: m_LocalEulerAnglesHint.y
      value: 0
      objectReference: {fileID: 0}
    - target: {fileID: 5414761061641824068, guid: 33cbae7f72591044f916869faee1bb85,
        type: 3}
      propertyPath: m_LocalEulerAnglesHint.z
      value: 0
      objectReference: {fileID: 0}
    m_RemovedComponents: []
  m_SourcePrefab: {fileID: 100100000, guid: 33cbae7f72591044f916869faee1bb85, type: 3}
--- !u!4 &5414761061073517982 stripped
Transform:
  m_CorrespondingSourceObject: {fileID: 5414761061641824068, guid: 33cbae7f72591044f916869faee1bb85,
    type: 3}
  m_PrefabInstance: {fileID: 572545754}
  m_PrefabAsset: {fileID: 0}
--- !u!1001 &582273822
PrefabInstance:
  m_ObjectHideFlags: 0
  serializedVersion: 2
  m_Modification:
    m_TransformParent: {fileID: 2750678588137356782}
    m_Modifications:
    - target: {fileID: 7414665424696401816, guid: 04b1344e7c38a144fa3fe63e323aadf1,
        type: 3}
      propertyPath: m_Name
      value: M_md_StallWallPillar_01_snaps009
      objectReference: {fileID: 0}
    - target: {fileID: 7414665424696099768, guid: 04b1344e7c38a144fa3fe63e323aadf1,
        type: 3}
      propertyPath: m_LocalPosition.x
      value: -68.06409
      objectReference: {fileID: 0}
    - target: {fileID: 7414665424696099768, guid: 04b1344e7c38a144fa3fe63e323aadf1,
        type: 3}
      propertyPath: m_LocalPosition.y
      value: 1.51
      objectReference: {fileID: 0}
    - target: {fileID: 7414665424696099768, guid: 04b1344e7c38a144fa3fe63e323aadf1,
        type: 3}
      propertyPath: m_LocalPosition.z
      value: -89.05036
      objectReference: {fileID: 0}
    - target: {fileID: 7414665424696099768, guid: 04b1344e7c38a144fa3fe63e323aadf1,
        type: 3}
      propertyPath: m_LocalRotation.x
      value: -0
      objectReference: {fileID: 0}
    - target: {fileID: 7414665424696099768, guid: 04b1344e7c38a144fa3fe63e323aadf1,
        type: 3}
      propertyPath: m_LocalRotation.y
      value: -0
      objectReference: {fileID: 0}
    - target: {fileID: 7414665424696099768, guid: 04b1344e7c38a144fa3fe63e323aadf1,
        type: 3}
      propertyPath: m_LocalRotation.z
      value: -0
      objectReference: {fileID: 0}
    - target: {fileID: 7414665424696099768, guid: 04b1344e7c38a144fa3fe63e323aadf1,
        type: 3}
      propertyPath: m_LocalRotation.w
      value: 1
      objectReference: {fileID: 0}
    - target: {fileID: 7414665424696099768, guid: 04b1344e7c38a144fa3fe63e323aadf1,
        type: 3}
      propertyPath: m_RootOrder
      value: 31
      objectReference: {fileID: 0}
    - target: {fileID: 7414665424696099768, guid: 04b1344e7c38a144fa3fe63e323aadf1,
        type: 3}
      propertyPath: m_LocalEulerAnglesHint.x
      value: 0
      objectReference: {fileID: 0}
    - target: {fileID: 7414665424696099768, guid: 04b1344e7c38a144fa3fe63e323aadf1,
        type: 3}
      propertyPath: m_LocalEulerAnglesHint.y
      value: 0
      objectReference: {fileID: 0}
    - target: {fileID: 7414665424696099768, guid: 04b1344e7c38a144fa3fe63e323aadf1,
        type: 3}
      propertyPath: m_LocalEulerAnglesHint.z
      value: 0
      objectReference: {fileID: 0}
    m_RemovedComponents: []
  m_SourcePrefab: {fileID: 100100000, guid: 04b1344e7c38a144fa3fe63e323aadf1, type: 3}
--- !u!4 &7414665425206970534 stripped
Transform:
  m_CorrespondingSourceObject: {fileID: 7414665424696099768, guid: 04b1344e7c38a144fa3fe63e323aadf1,
    type: 3}
  m_PrefabInstance: {fileID: 582273822}
  m_PrefabAsset: {fileID: 0}
--- !u!1001 &587308894
PrefabInstance:
  m_ObjectHideFlags: 0
  serializedVersion: 2
  m_Modification:
    m_TransformParent: {fileID: 2750678588137356782}
    m_Modifications:
    - target: {fileID: 5414761061641403236, guid: 33cbae7f72591044f916869faee1bb85,
        type: 3}
      propertyPath: m_Name
      value: M_md_Stall3_2m_01_snaps009
      objectReference: {fileID: 0}
    - target: {fileID: 5414761061641824068, guid: 33cbae7f72591044f916869faee1bb85,
        type: 3}
      propertyPath: m_LocalPosition.x
      value: -65.79997
      objectReference: {fileID: 0}
    - target: {fileID: 5414761061641824068, guid: 33cbae7f72591044f916869faee1bb85,
        type: 3}
      propertyPath: m_LocalPosition.y
      value: 2.2999992
      objectReference: {fileID: 0}
    - target: {fileID: 5414761061641824068, guid: 33cbae7f72591044f916869faee1bb85,
        type: 3}
      propertyPath: m_LocalPosition.z
      value: -85.90003
      objectReference: {fileID: 0}
    - target: {fileID: 5414761061641824068, guid: 33cbae7f72591044f916869faee1bb85,
        type: 3}
      propertyPath: m_LocalRotation.x
      value: -0
      objectReference: {fileID: 0}
    - target: {fileID: 5414761061641824068, guid: 33cbae7f72591044f916869faee1bb85,
        type: 3}
      propertyPath: m_LocalRotation.y
      value: 1
      objectReference: {fileID: 0}
    - target: {fileID: 5414761061641824068, guid: 33cbae7f72591044f916869faee1bb85,
        type: 3}
      propertyPath: m_LocalRotation.z
      value: -0
      objectReference: {fileID: 0}
    - target: {fileID: 5414761061641824068, guid: 33cbae7f72591044f916869faee1bb85,
        type: 3}
      propertyPath: m_LocalRotation.w
      value: -0.00000023841855
      objectReference: {fileID: 0}
    - target: {fileID: 5414761061641824068, guid: 33cbae7f72591044f916869faee1bb85,
        type: 3}
      propertyPath: m_RootOrder
      value: 26
      objectReference: {fileID: 0}
    - target: {fileID: 5414761061641824068, guid: 33cbae7f72591044f916869faee1bb85,
        type: 3}
      propertyPath: m_LocalEulerAnglesHint.x
      value: 0
      objectReference: {fileID: 0}
    - target: {fileID: 5414761061641824068, guid: 33cbae7f72591044f916869faee1bb85,
        type: 3}
      propertyPath: m_LocalEulerAnglesHint.y
      value: 0
      objectReference: {fileID: 0}
    - target: {fileID: 5414761061641824068, guid: 33cbae7f72591044f916869faee1bb85,
        type: 3}
      propertyPath: m_LocalEulerAnglesHint.z
      value: 0
      objectReference: {fileID: 0}
    m_RemovedComponents: []
  m_SourcePrefab: {fileID: 100100000, guid: 33cbae7f72591044f916869faee1bb85, type: 3}
--- !u!4 &5414761061088147482 stripped
Transform:
  m_CorrespondingSourceObject: {fileID: 5414761061641824068, guid: 33cbae7f72591044f916869faee1bb85,
    type: 3}
  m_PrefabInstance: {fileID: 587308894}
  m_PrefabAsset: {fileID: 0}
--- !u!1001 &613335620
PrefabInstance:
  m_ObjectHideFlags: 0
  serializedVersion: 2
  m_Modification:
    m_TransformParent: {fileID: 2750678588137356782}
    m_Modifications:
    - target: {fileID: 1414976009148069232, guid: 7a2cd66a7fb7d0c429258345c00e3402,
        type: 3}
      propertyPath: m_Name
      value: M_md_StallRoof2_1m_01_snaps009
      objectReference: {fileID: 0}
    - target: {fileID: 1414976009148557648, guid: 7a2cd66a7fb7d0c429258345c00e3402,
        type: 3}
      propertyPath: m_LocalPosition.x
      value: -65.82797
      objectReference: {fileID: 0}
    - target: {fileID: 1414976009148557648, guid: 7a2cd66a7fb7d0c429258345c00e3402,
        type: 3}
      propertyPath: m_LocalPosition.y
      value: 4.9489975
      objectReference: {fileID: 0}
    - target: {fileID: 1414976009148557648, guid: 7a2cd66a7fb7d0c429258345c00e3402,
        type: 3}
      propertyPath: m_LocalPosition.z
      value: -86.89603
      objectReference: {fileID: 0}
    - target: {fileID: 1414976009148557648, guid: 7a2cd66a7fb7d0c429258345c00e3402,
        type: 3}
      propertyPath: m_LocalRotation.x
      value: -0
      objectReference: {fileID: 0}
    - target: {fileID: 1414976009148557648, guid: 7a2cd66a7fb7d0c429258345c00e3402,
        type: 3}
      propertyPath: m_LocalRotation.y
      value: -1
      objectReference: {fileID: 0}
    - target: {fileID: 1414976009148557648, guid: 7a2cd66a7fb7d0c429258345c00e3402,
        type: 3}
      propertyPath: m_LocalRotation.z
      value: -0
      objectReference: {fileID: 0}
    - target: {fileID: 1414976009148557648, guid: 7a2cd66a7fb7d0c429258345c00e3402,
        type: 3}
      propertyPath: m_LocalRotation.w
      value: 0.0000019073484
      objectReference: {fileID: 0}
    - target: {fileID: 1414976009148557648, guid: 7a2cd66a7fb7d0c429258345c00e3402,
        type: 3}
      propertyPath: m_RootOrder
      value: 3
      objectReference: {fileID: 0}
    - target: {fileID: 1414976009148557648, guid: 7a2cd66a7fb7d0c429258345c00e3402,
        type: 3}
      propertyPath: m_LocalEulerAnglesHint.x
      value: 0
      objectReference: {fileID: 0}
    - target: {fileID: 1414976009148557648, guid: 7a2cd66a7fb7d0c429258345c00e3402,
        type: 3}
      propertyPath: m_LocalEulerAnglesHint.y
      value: 0
      objectReference: {fileID: 0}
    - target: {fileID: 1414976009148557648, guid: 7a2cd66a7fb7d0c429258345c00e3402,
        type: 3}
      propertyPath: m_LocalEulerAnglesHint.z
      value: 0
      objectReference: {fileID: 0}
    m_RemovedComponents: []
  m_SourcePrefab: {fileID: 100100000, guid: 7a2cd66a7fb7d0c429258345c00e3402, type: 3}
--- !u!4 &1414976008535223060 stripped
Transform:
  m_CorrespondingSourceObject: {fileID: 1414976009148557648, guid: 7a2cd66a7fb7d0c429258345c00e3402,
    type: 3}
  m_PrefabInstance: {fileID: 613335620}
  m_PrefabAsset: {fileID: 0}
--- !u!1001 &635067566
PrefabInstance:
  m_ObjectHideFlags: 0
  serializedVersion: 2
  m_Modification:
    m_TransformParent: {fileID: 2750678588137356782}
    m_Modifications:
    - target: {fileID: 1414976009148069232, guid: 7a2cd66a7fb7d0c429258345c00e3402,
        type: 3}
      propertyPath: m_Name
      value: M_md_StallRoof2_1m_01_snaps009
      objectReference: {fileID: 0}
    - target: {fileID: 1414976009148557648, guid: 7a2cd66a7fb7d0c429258345c00e3402,
        type: 3}
      propertyPath: m_LocalPosition.x
      value: -65.82797
      objectReference: {fileID: 0}
    - target: {fileID: 1414976009148557648, guid: 7a2cd66a7fb7d0c429258345c00e3402,
        type: 3}
      propertyPath: m_LocalPosition.y
      value: 4.9489975
      objectReference: {fileID: 0}
    - target: {fileID: 1414976009148557648, guid: 7a2cd66a7fb7d0c429258345c00e3402,
        type: 3}
      propertyPath: m_LocalPosition.z
      value: -87.89603
      objectReference: {fileID: 0}
    - target: {fileID: 1414976009148557648, guid: 7a2cd66a7fb7d0c429258345c00e3402,
        type: 3}
      propertyPath: m_LocalRotation.x
      value: -0
      objectReference: {fileID: 0}
    - target: {fileID: 1414976009148557648, guid: 7a2cd66a7fb7d0c429258345c00e3402,
        type: 3}
      propertyPath: m_LocalRotation.y
      value: -1
      objectReference: {fileID: 0}
    - target: {fileID: 1414976009148557648, guid: 7a2cd66a7fb7d0c429258345c00e3402,
        type: 3}
      propertyPath: m_LocalRotation.z
      value: -0
      objectReference: {fileID: 0}
    - target: {fileID: 1414976009148557648, guid: 7a2cd66a7fb7d0c429258345c00e3402,
        type: 3}
      propertyPath: m_LocalRotation.w
      value: 0.0000019073484
      objectReference: {fileID: 0}
    - target: {fileID: 1414976009148557648, guid: 7a2cd66a7fb7d0c429258345c00e3402,
        type: 3}
      propertyPath: m_RootOrder
      value: 4
      objectReference: {fileID: 0}
    - target: {fileID: 1414976009148557648, guid: 7a2cd66a7fb7d0c429258345c00e3402,
        type: 3}
      propertyPath: m_LocalEulerAnglesHint.x
      value: 0
      objectReference: {fileID: 0}
    - target: {fileID: 1414976009148557648, guid: 7a2cd66a7fb7d0c429258345c00e3402,
        type: 3}
      propertyPath: m_LocalEulerAnglesHint.y
      value: 0
      objectReference: {fileID: 0}
    - target: {fileID: 1414976009148557648, guid: 7a2cd66a7fb7d0c429258345c00e3402,
        type: 3}
      propertyPath: m_LocalEulerAnglesHint.z
      value: 0
      objectReference: {fileID: 0}
    m_RemovedComponents: []
  m_SourcePrefab: {fileID: 100100000, guid: 7a2cd66a7fb7d0c429258345c00e3402, type: 3}
--- !u!4 &1414976008547055102 stripped
Transform:
  m_CorrespondingSourceObject: {fileID: 1414976009148557648, guid: 7a2cd66a7fb7d0c429258345c00e3402,
    type: 3}
  m_PrefabInstance: {fileID: 635067566}
  m_PrefabAsset: {fileID: 0}
--- !u!1001 &649048809
PrefabInstance:
  m_ObjectHideFlags: 0
  serializedVersion: 2
  m_Modification:
    m_TransformParent: {fileID: 2750678588137356782}
    m_Modifications:
    - target: {fileID: 4721039399011877207, guid: 5c172cf91ff94b242ac5be12a47c151a,
        type: 3}
      propertyPath: m_Name
      value: M_md_StallRoofPanel_2x2_01_snaps009
      objectReference: {fileID: 0}
    - target: {fileID: 4721039399012113783, guid: 5c172cf91ff94b242ac5be12a47c151a,
        type: 3}
      propertyPath: m_LocalPosition.x
      value: -66.69996
      objectReference: {fileID: 0}
    - target: {fileID: 4721039399012113783, guid: 5c172cf91ff94b242ac5be12a47c151a,
        type: 3}
      propertyPath: m_LocalPosition.y
      value: 5.0999985
      objectReference: {fileID: 0}
    - target: {fileID: 4721039399012113783, guid: 5c172cf91ff94b242ac5be12a47c151a,
        type: 3}
      propertyPath: m_LocalPosition.z
      value: -86.90003
      objectReference: {fileID: 0}
    - target: {fileID: 4721039399012113783, guid: 5c172cf91ff94b242ac5be12a47c151a,
        type: 3}
      propertyPath: m_LocalRotation.x
      value: -0
      objectReference: {fileID: 0}
    - target: {fileID: 4721039399012113783, guid: 5c172cf91ff94b242ac5be12a47c151a,
        type: 3}
      propertyPath: m_LocalRotation.y
      value: 1
      objectReference: {fileID: 0}
    - target: {fileID: 4721039399012113783, guid: 5c172cf91ff94b242ac5be12a47c151a,
        type: 3}
      propertyPath: m_LocalRotation.z
      value: -0
      objectReference: {fileID: 0}
    - target: {fileID: 4721039399012113783, guid: 5c172cf91ff94b242ac5be12a47c151a,
        type: 3}
      propertyPath: m_LocalRotation.w
      value: -0.00000008940697
      objectReference: {fileID: 0}
    - target: {fileID: 4721039399012113783, guid: 5c172cf91ff94b242ac5be12a47c151a,
        type: 3}
      propertyPath: m_RootOrder
      value: 13
      objectReference: {fileID: 0}
    - target: {fileID: 4721039399012113783, guid: 5c172cf91ff94b242ac5be12a47c151a,
        type: 3}
      propertyPath: m_LocalEulerAnglesHint.x
      value: 0
      objectReference: {fileID: 0}
    - target: {fileID: 4721039399012113783, guid: 5c172cf91ff94b242ac5be12a47c151a,
        type: 3}
      propertyPath: m_LocalEulerAnglesHint.y
      value: 0
      objectReference: {fileID: 0}
    - target: {fileID: 4721039399012113783, guid: 5c172cf91ff94b242ac5be12a47c151a,
        type: 3}
      propertyPath: m_LocalEulerAnglesHint.z
      value: 0
      objectReference: {fileID: 0}
    m_RemovedComponents: []
  m_SourcePrefab: {fileID: 100100000, guid: 5c172cf91ff94b242ac5be12a47c151a, type: 3}
--- !u!4 &4721039398430453662 stripped
Transform:
  m_CorrespondingSourceObject: {fileID: 4721039399012113783, guid: 5c172cf91ff94b242ac5be12a47c151a,
    type: 3}
  m_PrefabInstance: {fileID: 649048809}
  m_PrefabAsset: {fileID: 0}
--- !u!1001 &685164919
PrefabInstance:
  m_ObjectHideFlags: 0
  serializedVersion: 2
  m_Modification:
    m_TransformParent: {fileID: 2750678588137356782}
    m_Modifications:
    - target: {fileID: 6798919453250974435, guid: 7bf67ba02a1b881499fefd8e70d45e31,
        type: 3}
      propertyPath: m_Name
      value: M_md_StallWall_4m_02_snaps009
      objectReference: {fileID: 0}
    - target: {fileID: 6798919453250940611, guid: 7bf67ba02a1b881499fefd8e70d45e31,
        type: 3}
      propertyPath: m_LocalPosition.x
      value: -68.29997
      objectReference: {fileID: 0}
    - target: {fileID: 6798919453250940611, guid: 7bf67ba02a1b881499fefd8e70d45e31,
        type: 3}
      propertyPath: m_LocalPosition.y
      value: 2.2999992
      objectReference: {fileID: 0}
    - target: {fileID: 6798919453250940611, guid: 7bf67ba02a1b881499fefd8e70d45e31,
        type: 3}
      propertyPath: m_LocalPosition.z
      value: -88.86002
      objectReference: {fileID: 0}
    - target: {fileID: 6798919453250940611, guid: 7bf67ba02a1b881499fefd8e70d45e31,
        type: 3}
      propertyPath: m_LocalRotation.x
      value: -0
      objectReference: {fileID: 0}
    - target: {fileID: 6798919453250940611, guid: 7bf67ba02a1b881499fefd8e70d45e31,
        type: 3}
      propertyPath: m_LocalRotation.y
      value: 0.7071069
      objectReference: {fileID: 0}
    - target: {fileID: 6798919453250940611, guid: 7bf67ba02a1b881499fefd8e70d45e31,
        type: 3}
      propertyPath: m_LocalRotation.z
      value: -0
      objectReference: {fileID: 0}
    - target: {fileID: 6798919453250940611, guid: 7bf67ba02a1b881499fefd8e70d45e31,
        type: 3}
      propertyPath: m_LocalRotation.w
      value: -0.7071067
      objectReference: {fileID: 0}
    - target: {fileID: 6798919453250940611, guid: 7bf67ba02a1b881499fefd8e70d45e31,
        type: 3}
      propertyPath: m_RootOrder
      value: 14
      objectReference: {fileID: 0}
    - target: {fileID: 6798919453250940611, guid: 7bf67ba02a1b881499fefd8e70d45e31,
        type: 3}
      propertyPath: m_LocalEulerAnglesHint.x
      value: 0
      objectReference: {fileID: 0}
    - target: {fileID: 6798919453250940611, guid: 7bf67ba02a1b881499fefd8e70d45e31,
        type: 3}
      propertyPath: m_LocalEulerAnglesHint.y
      value: 0
      objectReference: {fileID: 0}
    - target: {fileID: 6798919453250940611, guid: 7bf67ba02a1b881499fefd8e70d45e31,
        type: 3}
      propertyPath: m_LocalEulerAnglesHint.z
      value: 0
      objectReference: {fileID: 0}
    m_RemovedComponents: []
  m_SourcePrefab: {fileID: 100100000, guid: 7bf67ba02a1b881499fefd8e70d45e31, type: 3}
--- !u!4 &6798919452845221812 stripped
Transform:
  m_CorrespondingSourceObject: {fileID: 6798919453250940611, guid: 7bf67ba02a1b881499fefd8e70d45e31,
    type: 3}
  m_PrefabInstance: {fileID: 685164919}
  m_PrefabAsset: {fileID: 0}
--- !u!1001 &781410635
PrefabInstance:
  m_ObjectHideFlags: 0
  serializedVersion: 2
  m_Modification:
    m_TransformParent: {fileID: 2750678588137356782}
    m_Modifications:
    - target: {fileID: 8518760947617538297, guid: 4803123f45a0a6c4e92bd3cbb7c10e92,
        type: 3}
      propertyPath: m_Name
      value: M_md_Stall3_end_02_snaps009
      objectReference: {fileID: 0}
    - target: {fileID: 8518760947617184985, guid: 4803123f45a0a6c4e92bd3cbb7c10e92,
        type: 3}
      propertyPath: m_LocalPosition.x
      value: -65.79997
      objectReference: {fileID: 0}
    - target: {fileID: 8518760947617184985, guid: 4803123f45a0a6c4e92bd3cbb7c10e92,
        type: 3}
      propertyPath: m_LocalPosition.y
      value: 2.2999992
      objectReference: {fileID: 0}
    - target: {fileID: 8518760947617184985, guid: 4803123f45a0a6c4e92bd3cbb7c10e92,
        type: 3}
      propertyPath: m_LocalPosition.z
      value: -83.90003
      objectReference: {fileID: 0}
    - target: {fileID: 8518760947617184985, guid: 4803123f45a0a6c4e92bd3cbb7c10e92,
        type: 3}
      propertyPath: m_LocalRotation.x
      value: -0
      objectReference: {fileID: 0}
    - target: {fileID: 8518760947617184985, guid: 4803123f45a0a6c4e92bd3cbb7c10e92,
        type: 3}
      propertyPath: m_LocalRotation.y
      value: -1
      objectReference: {fileID: 0}
    - target: {fileID: 8518760947617184985, guid: 4803123f45a0a6c4e92bd3cbb7c10e92,
        type: 3}
      propertyPath: m_LocalRotation.z
      value: -0
      objectReference: {fileID: 0}
    - target: {fileID: 8518760947617184985, guid: 4803123f45a0a6c4e92bd3cbb7c10e92,
        type: 3}
      propertyPath: m_LocalRotation.w
      value: -0.0000030994415
      objectReference: {fileID: 0}
    - target: {fileID: 8518760947617184985, guid: 4803123f45a0a6c4e92bd3cbb7c10e92,
        type: 3}
      propertyPath: m_RootOrder
      value: 24
      objectReference: {fileID: 0}
    - target: {fileID: 8518760947617184985, guid: 4803123f45a0a6c4e92bd3cbb7c10e92,
        type: 3}
      propertyPath: m_LocalEulerAnglesHint.x
      value: 0
      objectReference: {fileID: 0}
    - target: {fileID: 8518760947617184985, guid: 4803123f45a0a6c4e92bd3cbb7c10e92,
        type: 3}
      propertyPath: m_LocalEulerAnglesHint.y
      value: 0
      objectReference: {fileID: 0}
    - target: {fileID: 8518760947617184985, guid: 4803123f45a0a6c4e92bd3cbb7c10e92,
        type: 3}
      propertyPath: m_LocalEulerAnglesHint.z
      value: 0
      objectReference: {fileID: 0}
    m_RemovedComponents: []
  m_SourcePrefab: {fileID: 100100000, guid: 4803123f45a0a6c4e92bd3cbb7c10e92, type: 3}
--- !u!4 &8518760948396350866 stripped
Transform:
  m_CorrespondingSourceObject: {fileID: 8518760947617184985, guid: 4803123f45a0a6c4e92bd3cbb7c10e92,
    type: 3}
  m_PrefabInstance: {fileID: 781410635}
  m_PrefabAsset: {fileID: 0}
--- !u!1001 &975204361
PrefabInstance:
  m_ObjectHideFlags: 0
  serializedVersion: 2
  m_Modification:
    m_TransformParent: {fileID: 2750678588137356782}
    m_Modifications:
    - target: {fileID: 8176675133163186486, guid: 70ca94ffc255057419260f57905e774e,
        type: 3}
      propertyPath: m_Name
      value: M_md_StallRoof2_end_01_snaps009
      objectReference: {fileID: 0}
    - target: {fileID: 8176675133162894614, guid: 70ca94ffc255057419260f57905e774e,
        type: 3}
      propertyPath: m_LocalPosition.x
      value: -67.84297
      objectReference: {fileID: 0}
    - target: {fileID: 8176675133162894614, guid: 70ca94ffc255057419260f57905e774e,
        type: 3}
      propertyPath: m_LocalPosition.y
      value: 4.963997
      objectReference: {fileID: 0}
    - target: {fileID: 8176675133162894614, guid: 70ca94ffc255057419260f57905e774e,
        type: 3}
      propertyPath: m_LocalPosition.z
      value: -82.89602
      objectReference: {fileID: 0}
    - target: {fileID: 8176675133162894614, guid: 70ca94ffc255057419260f57905e774e,
        type: 3}
      propertyPath: m_LocalRotation.x
      value: -0
      objectReference: {fileID: 0}
    - target: {fileID: 8176675133162894614, guid: 70ca94ffc255057419260f57905e774e,
        type: 3}
      propertyPath: m_LocalRotation.y
      value: -0.70710653
      objectReference: {fileID: 0}
    - target: {fileID: 8176675133162894614, guid: 70ca94ffc255057419260f57905e774e,
        type: 3}
      propertyPath: m_LocalRotation.z
      value: -0
      objectReference: {fileID: 0}
    - target: {fileID: 8176675133162894614, guid: 70ca94ffc255057419260f57905e774e,
        type: 3}
      propertyPath: m_LocalRotation.w
      value: -0.70710707
      objectReference: {fileID: 0}
    - target: {fileID: 8176675133162894614, guid: 70ca94ffc255057419260f57905e774e,
        type: 3}
      propertyPath: m_RootOrder
      value: 9
      objectReference: {fileID: 0}
    - target: {fileID: 8176675133162894614, guid: 70ca94ffc255057419260f57905e774e,
        type: 3}
      propertyPath: m_LocalEulerAnglesHint.x
      value: 0
      objectReference: {fileID: 0}
    - target: {fileID: 8176675133162894614, guid: 70ca94ffc255057419260f57905e774e,
        type: 3}
      propertyPath: m_LocalEulerAnglesHint.y
      value: 0
      objectReference: {fileID: 0}
    - target: {fileID: 8176675133162894614, guid: 70ca94ffc255057419260f57905e774e,
        type: 3}
      propertyPath: m_LocalEulerAnglesHint.z
      value: 0
      objectReference: {fileID: 0}
    m_RemovedComponents: []
  m_SourcePrefab: {fileID: 100100000, guid: 70ca94ffc255057419260f57905e774e, type: 3}
--- !u!4 &8176675132456158495 stripped
Transform:
  m_CorrespondingSourceObject: {fileID: 8176675133162894614, guid: 70ca94ffc255057419260f57905e774e,
    type: 3}
  m_PrefabInstance: {fileID: 975204361}
  m_PrefabAsset: {fileID: 0}
--- !u!1001 &989967757
PrefabInstance:
  m_ObjectHideFlags: 0
  serializedVersion: 2
  m_Modification:
    m_TransformParent: {fileID: 2750678588137356782}
    m_Modifications:
    - target: {fileID: 8176675133163186486, guid: 70ca94ffc255057419260f57905e774e,
        type: 3}
      propertyPath: m_Name
      value: M_md_StallRoof2_end_01_snaps009
      objectReference: {fileID: 0}
    - target: {fileID: 8176675133162894614, guid: 70ca94ffc255057419260f57905e774e,
        type: 3}
      propertyPath: m_LocalPosition.x
      value: -65.827965
      objectReference: {fileID: 0}
    - target: {fileID: 8176675133162894614, guid: 70ca94ffc255057419260f57905e774e,
        type: 3}
      propertyPath: m_LocalPosition.y
      value: 4.9489985
      objectReference: {fileID: 0}
    - target: {fileID: 8176675133162894614, guid: 70ca94ffc255057419260f57905e774e,
        type: 3}
      propertyPath: m_LocalPosition.z
      value: -88.85003
      objectReference: {fileID: 0}
    - target: {fileID: 8176675133162894614, guid: 70ca94ffc255057419260f57905e774e,
        type: 3}
      propertyPath: m_LocalRotation.x
      value: -0
      objectReference: {fileID: 0}
    - target: {fileID: 8176675133162894614, guid: 70ca94ffc255057419260f57905e774e,
        type: 3}
      propertyPath: m_LocalRotation.y
      value: -1
      objectReference: {fileID: 0}
    - target: {fileID: 8176675133162894614, guid: 70ca94ffc255057419260f57905e774e,
        type: 3}
      propertyPath: m_LocalRotation.z
      value: -0
      objectReference: {fileID: 0}
    - target: {fileID: 8176675133162894614, guid: 70ca94ffc255057419260f57905e774e,
        type: 3}
      propertyPath: m_LocalRotation.w
      value: -0.0000006556511
      objectReference: {fileID: 0}
    - target: {fileID: 8176675133162894614, guid: 70ca94ffc255057419260f57905e774e,
        type: 3}
      propertyPath: m_RootOrder
      value: 22
      objectReference: {fileID: 0}
    - target: {fileID: 8176675133162894614, guid: 70ca94ffc255057419260f57905e774e,
        type: 3}
      propertyPath: m_LocalEulerAnglesHint.x
      value: 0
      objectReference: {fileID: 0}
    - target: {fileID: 8176675133162894614, guid: 70ca94ffc255057419260f57905e774e,
        type: 3}
      propertyPath: m_LocalEulerAnglesHint.y
      value: 0
      objectReference: {fileID: 0}
    - target: {fileID: 8176675133162894614, guid: 70ca94ffc255057419260f57905e774e,
        type: 3}
      propertyPath: m_LocalEulerAnglesHint.z
      value: 0
      objectReference: {fileID: 0}
    m_RemovedComponents: []
  m_SourcePrefab: {fileID: 100100000, guid: 70ca94ffc255057419260f57905e774e, type: 3}
--- !u!4 &8176675132441362587 stripped
Transform:
  m_CorrespondingSourceObject: {fileID: 8176675133162894614, guid: 70ca94ffc255057419260f57905e774e,
    type: 3}
  m_PrefabInstance: {fileID: 989967757}
  m_PrefabAsset: {fileID: 0}
--- !u!1001 &1195060138
PrefabInstance:
  m_ObjectHideFlags: 0
  serializedVersion: 2
  m_Modification:
    m_TransformParent: {fileID: 2750678588137356782}
    m_Modifications:
    - target: {fileID: 4721039399011877207, guid: 5c172cf91ff94b242ac5be12a47c151a,
        type: 3}
      propertyPath: m_Name
      value: M_md_StallRoofPanel_2x2_01_snaps009
      objectReference: {fileID: 0}
    - target: {fileID: 4721039399012113783, guid: 5c172cf91ff94b242ac5be12a47c151a,
        type: 3}
      propertyPath: m_LocalPosition.x
      value: -67.88997
      objectReference: {fileID: 0}
    - target: {fileID: 4721039399012113783, guid: 5c172cf91ff94b242ac5be12a47c151a,
        type: 3}
      propertyPath: m_LocalPosition.y
      value: 5.2760067
      objectReference: {fileID: 0}
    - target: {fileID: 4721039399012113783, guid: 5c172cf91ff94b242ac5be12a47c151a,
        type: 3}
      propertyPath: m_LocalPosition.z
      value: -86.82203
      objectReference: {fileID: 0}
    - target: {fileID: 4721039399012113783, guid: 5c172cf91ff94b242ac5be12a47c151a,
        type: 3}
      propertyPath: m_LocalRotation.x
      value: 0.00000008940697
      objectReference: {fileID: 0}
    - target: {fileID: 4721039399012113783, guid: 5c172cf91ff94b242ac5be12a47c151a,
        type: 3}
      propertyPath: m_LocalRotation.y
      value: -0.00000008940698
      objectReference: {fileID: 0}
    - target: {fileID: 4721039399012113783, guid: 5c172cf91ff94b242ac5be12a47c151a,
        type: 3}
      propertyPath: m_LocalRotation.z
      value: 1
      objectReference: {fileID: 0}
    - target: {fileID: 4721039399012113783, guid: 5c172cf91ff94b242ac5be12a47c151a,
        type: 3}
      propertyPath: m_LocalRotation.w
      value: 1.0658141e-14
      objectReference: {fileID: 0}
    - target: {fileID: 4721039399012113783, guid: 5c172cf91ff94b242ac5be12a47c151a,
        type: 3}
      propertyPath: m_RootOrder
      value: 19
      objectReference: {fileID: 0}
    - target: {fileID: 4721039399012113783, guid: 5c172cf91ff94b242ac5be12a47c151a,
        type: 3}
      propertyPath: m_LocalEulerAnglesHint.x
      value: 0
      objectReference: {fileID: 0}
    - target: {fileID: 4721039399012113783, guid: 5c172cf91ff94b242ac5be12a47c151a,
        type: 3}
      propertyPath: m_LocalEulerAnglesHint.y
      value: 0
      objectReference: {fileID: 0}
    - target: {fileID: 4721039399012113783, guid: 5c172cf91ff94b242ac5be12a47c151a,
        type: 3}
      propertyPath: m_LocalEulerAnglesHint.z
      value: 0
      objectReference: {fileID: 0}
    m_RemovedComponents: []
  m_SourcePrefab: {fileID: 100100000, guid: 5c172cf91ff94b242ac5be12a47c151a, type: 3}
--- !u!4 &4721039397917996765 stripped
Transform:
  m_CorrespondingSourceObject: {fileID: 4721039399012113783, guid: 5c172cf91ff94b242ac5be12a47c151a,
    type: 3}
  m_PrefabInstance: {fileID: 1195060138}
  m_PrefabAsset: {fileID: 0}
--- !u!1001 &1306827478
PrefabInstance:
  m_ObjectHideFlags: 0
  serializedVersion: 2
  m_Modification:
    m_TransformParent: {fileID: 2750678588137356782}
    m_Modifications:
    - target: {fileID: 6798919453250974435, guid: 7bf67ba02a1b881499fefd8e70d45e31,
        type: 3}
      propertyPath: m_Name
      value: M_md_StallWall_4m_02_snaps009
      objectReference: {fileID: 0}
    - target: {fileID: 6798919453250940611, guid: 7bf67ba02a1b881499fefd8e70d45e31,
        type: 3}
      propertyPath: m_LocalPosition.x
      value: -67.849976
      objectReference: {fileID: 0}
    - target: {fileID: 6798919453250940611, guid: 7bf67ba02a1b881499fefd8e70d45e31,
        type: 3}
      propertyPath: m_LocalPosition.y
      value: 2.2999992
      objectReference: {fileID: 0}
    - target: {fileID: 6798919453250940611, guid: 7bf67ba02a1b881499fefd8e70d45e31,
        type: 3}
      propertyPath: m_LocalPosition.z
      value: -81.01002
      objectReference: {fileID: 0}
    - target: {fileID: 6798919453250940611, guid: 7bf67ba02a1b881499fefd8e70d45e31,
        type: 3}
      propertyPath: m_LocalRotation.x
      value: -0
      objectReference: {fileID: 0}
    - target: {fileID: 6798919453250940611, guid: 7bf67ba02a1b881499fefd8e70d45e31,
        type: 3}
      propertyPath: m_LocalRotation.y
      value: 0.0000002682209
      objectReference: {fileID: 0}
    - target: {fileID: 6798919453250940611, guid: 7bf67ba02a1b881499fefd8e70d45e31,
        type: 3}
      propertyPath: m_LocalRotation.z
      value: -0
      objectReference: {fileID: 0}
    - target: {fileID: 6798919453250940611, guid: 7bf67ba02a1b881499fefd8e70d45e31,
        type: 3}
      propertyPath: m_LocalRotation.w
      value: -1
      objectReference: {fileID: 0}
    - target: {fileID: 6798919453250940611, guid: 7bf67ba02a1b881499fefd8e70d45e31,
        type: 3}
      propertyPath: m_RootOrder
      value: 15
      objectReference: {fileID: 0}
    - target: {fileID: 6798919453250940611, guid: 7bf67ba02a1b881499fefd8e70d45e31,
        type: 3}
      propertyPath: m_LocalEulerAnglesHint.x
      value: 0
      objectReference: {fileID: 0}
    - target: {fileID: 6798919453250940611, guid: 7bf67ba02a1b881499fefd8e70d45e31,
        type: 3}
      propertyPath: m_LocalEulerAnglesHint.y
      value: 0
      objectReference: {fileID: 0}
    - target: {fileID: 6798919453250940611, guid: 7bf67ba02a1b881499fefd8e70d45e31,
        type: 3}
      propertyPath: m_LocalEulerAnglesHint.z
      value: 0
      objectReference: {fileID: 0}
    m_RemovedComponents: []
  m_SourcePrefab: {fileID: 100100000, guid: 7bf67ba02a1b881499fefd8e70d45e31, type: 3}
--- !u!4 &6798919452359881749 stripped
Transform:
  m_CorrespondingSourceObject: {fileID: 6798919453250940611, guid: 7bf67ba02a1b881499fefd8e70d45e31,
    type: 3}
  m_PrefabInstance: {fileID: 1306827478}
  m_PrefabAsset: {fileID: 0}
--- !u!1001 &1309355697
PrefabInstance:
  m_ObjectHideFlags: 0
  serializedVersion: 2
  m_Modification:
    m_TransformParent: {fileID: 2750678588137356782}
    m_Modifications:
    - target: {fileID: 1414976009148069232, guid: 7a2cd66a7fb7d0c429258345c00e3402,
        type: 3}
      propertyPath: m_Name
      value: M_md_StallRoof2_1m_01_snaps009
      objectReference: {fileID: 0}
    - target: {fileID: 1414976009148557648, guid: 7a2cd66a7fb7d0c429258345c00e3402,
        type: 3}
      propertyPath: m_LocalPosition.x
      value: -65.82797
      objectReference: {fileID: 0}
    - target: {fileID: 1414976009148557648, guid: 7a2cd66a7fb7d0c429258345c00e3402,
        type: 3}
      propertyPath: m_LocalPosition.y
      value: 4.9489975
      objectReference: {fileID: 0}
    - target: {fileID: 1414976009148557648, guid: 7a2cd66a7fb7d0c429258345c00e3402,
        type: 3}
      propertyPath: m_LocalPosition.z
      value: -83.89602
      objectReference: {fileID: 0}
    - target: {fileID: 1414976009148557648, guid: 7a2cd66a7fb7d0c429258345c00e3402,
        type: 3}
      propertyPath: m_LocalRotation.x
      value: -0
      objectReference: {fileID: 0}
    - target: {fileID: 1414976009148557648, guid: 7a2cd66a7fb7d0c429258345c00e3402,
        type: 3}
      propertyPath: m_LocalRotation.y
      value: -1
      objectReference: {fileID: 0}
    - target: {fileID: 1414976009148557648, guid: 7a2cd66a7fb7d0c429258345c00e3402,
        type: 3}
      propertyPath: m_LocalRotation.z
      value: -0
      objectReference: {fileID: 0}
    - target: {fileID: 1414976009148557648, guid: 7a2cd66a7fb7d0c429258345c00e3402,
        type: 3}
      propertyPath: m_LocalRotation.w
      value: 0.0000019073484
      objectReference: {fileID: 0}
    - target: {fileID: 1414976009148557648, guid: 7a2cd66a7fb7d0c429258345c00e3402,
        type: 3}
      propertyPath: m_RootOrder
      value: 6
      objectReference: {fileID: 0}
    - target: {fileID: 1414976009148557648, guid: 7a2cd66a7fb7d0c429258345c00e3402,
        type: 3}
      propertyPath: m_LocalEulerAnglesHint.x
      value: 0
      objectReference: {fileID: 0}
    - target: {fileID: 1414976009148557648, guid: 7a2cd66a7fb7d0c429258345c00e3402,
        type: 3}
      propertyPath: m_LocalEulerAnglesHint.y
      value: 0
      objectReference: {fileID: 0}
    - target: {fileID: 1414976009148557648, guid: 7a2cd66a7fb7d0c429258345c00e3402,
        type: 3}
      propertyPath: m_LocalEulerAnglesHint.z
      value: 0
      objectReference: {fileID: 0}
    m_RemovedComponents: []
  m_SourcePrefab: {fileID: 100100000, guid: 7a2cd66a7fb7d0c429258345c00e3402, type: 3}
--- !u!4 &1414976008107640801 stripped
Transform:
  m_CorrespondingSourceObject: {fileID: 1414976009148557648, guid: 7a2cd66a7fb7d0c429258345c00e3402,
    type: 3}
  m_PrefabInstance: {fileID: 1309355697}
  m_PrefabAsset: {fileID: 0}
--- !u!1001 &1333116682
PrefabInstance:
  m_ObjectHideFlags: 0
  serializedVersion: 2
  m_Modification:
    m_TransformParent: {fileID: 2750678588137356782}
    m_Modifications:
    - target: {fileID: 1414976009148069232, guid: 7a2cd66a7fb7d0c429258345c00e3402,
        type: 3}
      propertyPath: m_Name
      value: M_md_StallRoof2_1m_01_snaps009
      objectReference: {fileID: 0}
    - target: {fileID: 1414976009148557648, guid: 7a2cd66a7fb7d0c429258345c00e3402,
        type: 3}
      propertyPath: m_LocalPosition.x
      value: -65.82797
      objectReference: {fileID: 0}
    - target: {fileID: 1414976009148557648, guid: 7a2cd66a7fb7d0c429258345c00e3402,
        type: 3}
      propertyPath: m_LocalPosition.y
      value: 4.9489975
      objectReference: {fileID: 0}
    - target: {fileID: 1414976009148557648, guid: 7a2cd66a7fb7d0c429258345c00e3402,
        type: 3}
      propertyPath: m_LocalPosition.z
      value: -82.89602
      objectReference: {fileID: 0}
    - target: {fileID: 1414976009148557648, guid: 7a2cd66a7fb7d0c429258345c00e3402,
        type: 3}
      propertyPath: m_LocalRotation.x
      value: -0
      objectReference: {fileID: 0}
    - target: {fileID: 1414976009148557648, guid: 7a2cd66a7fb7d0c429258345c00e3402,
        type: 3}
      propertyPath: m_LocalRotation.y
      value: -0.7071078
      objectReference: {fileID: 0}
    - target: {fileID: 1414976009148557648, guid: 7a2cd66a7fb7d0c429258345c00e3402,
        type: 3}
      propertyPath: m_LocalRotation.z
      value: -0
      objectReference: {fileID: 0}
    - target: {fileID: 1414976009148557648, guid: 7a2cd66a7fb7d0c429258345c00e3402,
        type: 3}
      propertyPath: m_LocalRotation.w
      value: -0.7071058
      objectReference: {fileID: 0}
    - target: {fileID: 1414976009148557648, guid: 7a2cd66a7fb7d0c429258345c00e3402,
        type: 3}
      propertyPath: m_RootOrder
      value: 7
      objectReference: {fileID: 0}
    - target: {fileID: 1414976009148557648, guid: 7a2cd66a7fb7d0c429258345c00e3402,
        type: 3}
      propertyPath: m_LocalEulerAnglesHint.x
      value: 0
      objectReference: {fileID: 0}
    - target: {fileID: 1414976009148557648, guid: 7a2cd66a7fb7d0c429258345c00e3402,
        type: 3}
      propertyPath: m_LocalEulerAnglesHint.y
      value: 0
      objectReference: {fileID: 0}
    - target: {fileID: 1414976009148557648, guid: 7a2cd66a7fb7d0c429258345c00e3402,
        type: 3}
      propertyPath: m_LocalEulerAnglesHint.z
      value: 0
      objectReference: {fileID: 0}
    m_RemovedComponents: []
  m_SourcePrefab: {fileID: 100100000, guid: 7a2cd66a7fb7d0c429258345c00e3402, type: 3}
--- !u!4 &1414976008117442138 stripped
Transform:
  m_CorrespondingSourceObject: {fileID: 1414976009148557648, guid: 7a2cd66a7fb7d0c429258345c00e3402,
    type: 3}
  m_PrefabInstance: {fileID: 1333116682}
  m_PrefabAsset: {fileID: 0}
--- !u!1001 &1486638784
PrefabInstance:
  m_ObjectHideFlags: 0
  serializedVersion: 2
  m_Modification:
    m_TransformParent: {fileID: 2750678588137356782}
    m_Modifications:
    - target: {fileID: 4721039399011877207, guid: 5c172cf91ff94b242ac5be12a47c151a,
        type: 3}
      propertyPath: m_Name
      value: M_md_StallRoofPanel_2x2_01_snaps009
      objectReference: {fileID: 0}
    - target: {fileID: 4721039399012113783, guid: 5c172cf91ff94b242ac5be12a47c151a,
        type: 3}
      propertyPath: m_LocalPosition.x
      value: -66.69997
      objectReference: {fileID: 0}
    - target: {fileID: 4721039399012113783, guid: 5c172cf91ff94b242ac5be12a47c151a,
        type: 3}
      propertyPath: m_LocalPosition.y
      value: 5.0999985
      objectReference: {fileID: 0}
    - target: {fileID: 4721039399012113783, guid: 5c172cf91ff94b242ac5be12a47c151a,
        type: 3}
      propertyPath: m_LocalPosition.z
      value: -84.900024
      objectReference: {fileID: 0}
    - target: {fileID: 4721039399012113783, guid: 5c172cf91ff94b242ac5be12a47c151a,
        type: 3}
      propertyPath: m_LocalRotation.x
      value: -0
      objectReference: {fileID: 0}
    - target: {fileID: 4721039399012113783, guid: 5c172cf91ff94b242ac5be12a47c151a,
        type: 3}
      propertyPath: m_LocalRotation.y
      value: 1
      objectReference: {fileID: 0}
    - target: {fileID: 4721039399012113783, guid: 5c172cf91ff94b242ac5be12a47c151a,
        type: 3}
      propertyPath: m_LocalRotation.z
      value: -0
      objectReference: {fileID: 0}
    - target: {fileID: 4721039399012113783, guid: 5c172cf91ff94b242ac5be12a47c151a,
        type: 3}
      propertyPath: m_LocalRotation.w
      value: -0.00000008940697
      objectReference: {fileID: 0}
    - target: {fileID: 4721039399012113783, guid: 5c172cf91ff94b242ac5be12a47c151a,
        type: 3}
      propertyPath: m_RootOrder
      value: 11
      objectReference: {fileID: 0}
    - target: {fileID: 4721039399012113783, guid: 5c172cf91ff94b242ac5be12a47c151a,
        type: 3}
      propertyPath: m_LocalEulerAnglesHint.x
      value: 0
      objectReference: {fileID: 0}
    - target: {fileID: 4721039399012113783, guid: 5c172cf91ff94b242ac5be12a47c151a,
        type: 3}
      propertyPath: m_LocalEulerAnglesHint.y
      value: 0
      objectReference: {fileID: 0}
    - target: {fileID: 4721039399012113783, guid: 5c172cf91ff94b242ac5be12a47c151a,
        type: 3}
      propertyPath: m_LocalEulerAnglesHint.z
      value: 0
      objectReference: {fileID: 0}
    m_RemovedComponents: []
  m_SourcePrefab: {fileID: 100100000, guid: 5c172cf91ff94b242ac5be12a47c151a, type: 3}
--- !u!4 &4721039397525509047 stripped
Transform:
  m_CorrespondingSourceObject: {fileID: 4721039399012113783, guid: 5c172cf91ff94b242ac5be12a47c151a,
    type: 3}
  m_PrefabInstance: {fileID: 1486638784}
  m_PrefabAsset: {fileID: 0}
--- !u!1001 &1621828551
PrefabInstance:
  m_ObjectHideFlags: 0
  serializedVersion: 2
  m_Modification:
    m_TransformParent: {fileID: 2750678588137356782}
    m_Modifications:
    - target: {fileID: 4721039399011877207, guid: 5c172cf91ff94b242ac5be12a47c151a,
        type: 3}
      propertyPath: m_Name
      value: M_md_StallRoofPanel_2x2_01_snaps009
      objectReference: {fileID: 0}
    - target: {fileID: 4721039399012113783, guid: 5c172cf91ff94b242ac5be12a47c151a,
        type: 3}
      propertyPath: m_LocalPosition.x
      value: -68.69998
      objectReference: {fileID: 0}
    - target: {fileID: 4721039399012113783, guid: 5c172cf91ff94b242ac5be12a47c151a,
        type: 3}
      propertyPath: m_LocalPosition.y
      value: 5.0999985
      objectReference: {fileID: 0}
    - target: {fileID: 4721039399012113783, guid: 5c172cf91ff94b242ac5be12a47c151a,
        type: 3}
      propertyPath: m_LocalPosition.z
      value: -86.90003
      objectReference: {fileID: 0}
    - target: {fileID: 4721039399012113783, guid: 5c172cf91ff94b242ac5be12a47c151a,
        type: 3}
      propertyPath: m_LocalRotation.x
      value: -0
      objectReference: {fileID: 0}
    - target: {fileID: 4721039399012113783, guid: 5c172cf91ff94b242ac5be12a47c151a,
        type: 3}
      propertyPath: m_LocalRotation.y
      value: 1
      objectReference: {fileID: 0}
    - target: {fileID: 4721039399012113783, guid: 5c172cf91ff94b242ac5be12a47c151a,
        type: 3}
      propertyPath: m_LocalRotation.z
      value: -0
      objectReference: {fileID: 0}
    - target: {fileID: 4721039399012113783, guid: 5c172cf91ff94b242ac5be12a47c151a,
        type: 3}
      propertyPath: m_LocalRotation.w
      value: -0.00000008940697
      objectReference: {fileID: 0}
    - target: {fileID: 4721039399012113783, guid: 5c172cf91ff94b242ac5be12a47c151a,
        type: 3}
      propertyPath: m_RootOrder
      value: 12
      objectReference: {fileID: 0}
    - target: {fileID: 4721039399012113783, guid: 5c172cf91ff94b242ac5be12a47c151a,
        type: 3}
      propertyPath: m_LocalEulerAnglesHint.x
      value: 0
      objectReference: {fileID: 0}
    - target: {fileID: 4721039399012113783, guid: 5c172cf91ff94b242ac5be12a47c151a,
        type: 3}
      propertyPath: m_LocalEulerAnglesHint.y
      value: 0
      objectReference: {fileID: 0}
    - target: {fileID: 4721039399012113783, guid: 5c172cf91ff94b242ac5be12a47c151a,
        type: 3}
      propertyPath: m_LocalEulerAnglesHint.z
      value: 0
      objectReference: {fileID: 0}
    m_RemovedComponents: []
  m_SourcePrefab: {fileID: 100100000, guid: 5c172cf91ff94b242ac5be12a47c151a, type: 3}
--- !u!4 &4721039397390565040 stripped
Transform:
  m_CorrespondingSourceObject: {fileID: 4721039399012113783, guid: 5c172cf91ff94b242ac5be12a47c151a,
    type: 3}
  m_PrefabInstance: {fileID: 1621828551}
  m_PrefabAsset: {fileID: 0}
--- !u!1001 &1636492867
PrefabInstance:
  m_ObjectHideFlags: 0
  serializedVersion: 2
  m_Modification:
    m_TransformParent: {fileID: 2750678588137356782}
    m_Modifications:
    - target: {fileID: 4721039399011877207, guid: 5c172cf91ff94b242ac5be12a47c151a,
        type: 3}
      propertyPath: m_Name
      value: M_md_StallRoofPanel_2x2_01_snaps009
      objectReference: {fileID: 0}
    - target: {fileID: 4721039399012113783, guid: 5c172cf91ff94b242ac5be12a47c151a,
        type: 3}
      propertyPath: m_LocalPosition.x
      value: -68.69997
      objectReference: {fileID: 0}
    - target: {fileID: 4721039399012113783, guid: 5c172cf91ff94b242ac5be12a47c151a,
        type: 3}
      propertyPath: m_LocalPosition.y
      value: 5.0999985
      objectReference: {fileID: 0}
    - target: {fileID: 4721039399012113783, guid: 5c172cf91ff94b242ac5be12a47c151a,
        type: 3}
      propertyPath: m_LocalPosition.z
      value: -84.900024
      objectReference: {fileID: 0}
    - target: {fileID: 4721039399012113783, guid: 5c172cf91ff94b242ac5be12a47c151a,
        type: 3}
      propertyPath: m_LocalRotation.x
      value: -0
      objectReference: {fileID: 0}
    - target: {fileID: 4721039399012113783, guid: 5c172cf91ff94b242ac5be12a47c151a,
        type: 3}
      propertyPath: m_LocalRotation.y
      value: 1
      objectReference: {fileID: 0}
    - target: {fileID: 4721039399012113783, guid: 5c172cf91ff94b242ac5be12a47c151a,
        type: 3}
      propertyPath: m_LocalRotation.z
      value: -0
      objectReference: {fileID: 0}
    - target: {fileID: 4721039399012113783, guid: 5c172cf91ff94b242ac5be12a47c151a,
        type: 3}
      propertyPath: m_LocalRotation.w
      value: -0.00000008940697
      objectReference: {fileID: 0}
    - target: {fileID: 4721039399012113783, guid: 5c172cf91ff94b242ac5be12a47c151a,
        type: 3}
      propertyPath: m_RootOrder
      value: 10
      objectReference: {fileID: 0}
    - target: {fileID: 4721039399012113783, guid: 5c172cf91ff94b242ac5be12a47c151a,
        type: 3}
      propertyPath: m_LocalEulerAnglesHint.x
      value: 0
      objectReference: {fileID: 0}
    - target: {fileID: 4721039399012113783, guid: 5c172cf91ff94b242ac5be12a47c151a,
        type: 3}
      propertyPath: m_LocalEulerAnglesHint.y
      value: 0
      objectReference: {fileID: 0}
    - target: {fileID: 4721039399012113783, guid: 5c172cf91ff94b242ac5be12a47c151a,
        type: 3}
      propertyPath: m_LocalEulerAnglesHint.z
      value: 0
      objectReference: {fileID: 0}
    m_RemovedComponents: []
  m_SourcePrefab: {fileID: 100100000, guid: 5c172cf91ff94b242ac5be12a47c151a, type: 3}
--- !u!4 &4721039397409487668 stripped
Transform:
  m_CorrespondingSourceObject: {fileID: 4721039399012113783, guid: 5c172cf91ff94b242ac5be12a47c151a,
    type: 3}
  m_PrefabInstance: {fileID: 1636492867}
  m_PrefabAsset: {fileID: 0}
--- !u!1001 &1659750408
PrefabInstance:
  m_ObjectHideFlags: 0
  serializedVersion: 2
  m_Modification:
    m_TransformParent: {fileID: 2750678588137356782}
    m_Modifications:
    - target: {fileID: 4721039399011877207, guid: 5c172cf91ff94b242ac5be12a47c151a,
        type: 3}
      propertyPath: m_Name
      value: M_md_StallRoofPanel_2x2_01_snaps009
      objectReference: {fileID: 0}
    - target: {fileID: 4721039399012113783, guid: 5c172cf91ff94b242ac5be12a47c151a,
        type: 3}
      propertyPath: m_LocalPosition.x
      value: -67.88897
      objectReference: {fileID: 0}
    - target: {fileID: 4721039399012113783, guid: 5c172cf91ff94b242ac5be12a47c151a,
        type: 3}
      propertyPath: m_LocalPosition.y
      value: 5.2760067
      objectReference: {fileID: 0}
    - target: {fileID: 4721039399012113783, guid: 5c172cf91ff94b242ac5be12a47c151a,
        type: 3}
      propertyPath: m_LocalPosition.z
      value: -82.55703
      objectReference: {fileID: 0}
    - target: {fileID: 4721039399012113783, guid: 5c172cf91ff94b242ac5be12a47c151a,
        type: 3}
      propertyPath: m_LocalRotation.x
      value: 0.00000008940697
      objectReference: {fileID: 0}
    - target: {fileID: 4721039399012113783, guid: 5c172cf91ff94b242ac5be12a47c151a,
        type: 3}
      propertyPath: m_LocalRotation.y
      value: -0.00000008940698
      objectReference: {fileID: 0}
    - target: {fileID: 4721039399012113783, guid: 5c172cf91ff94b242ac5be12a47c151a,
        type: 3}
      propertyPath: m_LocalRotation.z
      value: 1
      objectReference: {fileID: 0}
    - target: {fileID: 4721039399012113783, guid: 5c172cf91ff94b242ac5be12a47c151a,
        type: 3}
      propertyPath: m_LocalRotation.w
      value: 1.0658141e-14
      objectReference: {fileID: 0}
    - target: {fileID: 4721039399012113783, guid: 5c172cf91ff94b242ac5be12a47c151a,
        type: 3}
      propertyPath: m_RootOrder
      value: 21
      objectReference: {fileID: 0}
    - target: {fileID: 4721039399012113783, guid: 5c172cf91ff94b242ac5be12a47c151a,
        type: 3}
      propertyPath: m_LocalEulerAnglesHint.x
      value: 0
      objectReference: {fileID: 0}
    - target: {fileID: 4721039399012113783, guid: 5c172cf91ff94b242ac5be12a47c151a,
        type: 3}
      propertyPath: m_LocalEulerAnglesHint.y
      value: 0
      objectReference: {fileID: 0}
    - target: {fileID: 4721039399012113783, guid: 5c172cf91ff94b242ac5be12a47c151a,
        type: 3}
      propertyPath: m_LocalEulerAnglesHint.z
      value: 0
      objectReference: {fileID: 0}
    m_RemovedComponents: []
  m_SourcePrefab: {fileID: 100100000, guid: 5c172cf91ff94b242ac5be12a47c151a, type: 3}
--- !u!4 &4721039397427893631 stripped
Transform:
  m_CorrespondingSourceObject: {fileID: 4721039399012113783, guid: 5c172cf91ff94b242ac5be12a47c151a,
    type: 3}
  m_PrefabInstance: {fileID: 1659750408}
  m_PrefabAsset: {fileID: 0}
--- !u!1001 &1704695308
PrefabInstance:
  m_ObjectHideFlags: 0
  serializedVersion: 2
  m_Modification:
    m_TransformParent: {fileID: 2750678588137356782}
    m_Modifications:
    - target: {fileID: 1414976009148069232, guid: 7a2cd66a7fb7d0c429258345c00e3402,
        type: 3}
      propertyPath: m_Name
      value: M_md_StallRoof2_1m_01_snaps009
      objectReference: {fileID: 0}
    - target: {fileID: 1414976009148557648, guid: 7a2cd66a7fb7d0c429258345c00e3402,
        type: 3}
      propertyPath: m_LocalPosition.x
      value: -65.82797
      objectReference: {fileID: 0}
    - target: {fileID: 1414976009148557648, guid: 7a2cd66a7fb7d0c429258345c00e3402,
        type: 3}
      propertyPath: m_LocalPosition.y
      value: 4.9489975
      objectReference: {fileID: 0}
    - target: {fileID: 1414976009148557648, guid: 7a2cd66a7fb7d0c429258345c00e3402,
        type: 3}
      propertyPath: m_LocalPosition.z
      value: -85.89603
      objectReference: {fileID: 0}
    - target: {fileID: 1414976009148557648, guid: 7a2cd66a7fb7d0c429258345c00e3402,
        type: 3}
      propertyPath: m_LocalRotation.x
      value: -0
      objectReference: {fileID: 0}
    - target: {fileID: 1414976009148557648, guid: 7a2cd66a7fb7d0c429258345c00e3402,
        type: 3}
      propertyPath: m_LocalRotation.y
      value: -1
      objectReference: {fileID: 0}
    - target: {fileID: 1414976009148557648, guid: 7a2cd66a7fb7d0c429258345c00e3402,
        type: 3}
      propertyPath: m_LocalRotation.z
      value: -0
      objectReference: {fileID: 0}
    - target: {fileID: 1414976009148557648, guid: 7a2cd66a7fb7d0c429258345c00e3402,
        type: 3}
      propertyPath: m_LocalRotation.w
      value: 0.0000019073484
      objectReference: {fileID: 0}
    - target: {fileID: 1414976009148557648, guid: 7a2cd66a7fb7d0c429258345c00e3402,
        type: 3}
      propertyPath: m_RootOrder
      value: 2
      objectReference: {fileID: 0}
    - target: {fileID: 1414976009148557648, guid: 7a2cd66a7fb7d0c429258345c00e3402,
        type: 3}
      propertyPath: m_LocalEulerAnglesHint.x
      value: 0
      objectReference: {fileID: 0}
    - target: {fileID: 1414976009148557648, guid: 7a2cd66a7fb7d0c429258345c00e3402,
        type: 3}
      propertyPath: m_LocalEulerAnglesHint.y
      value: 0
      objectReference: {fileID: 0}
    - target: {fileID: 1414976009148557648, guid: 7a2cd66a7fb7d0c429258345c00e3402,
        type: 3}
      propertyPath: m_LocalEulerAnglesHint.z
      value: 0
      objectReference: {fileID: 0}
    m_RemovedComponents: []
  m_SourcePrefab: {fileID: 100100000, guid: 7a2cd66a7fb7d0c429258345c00e3402, type: 3}
--- !u!4 &1414976007477428060 stripped
Transform:
  m_CorrespondingSourceObject: {fileID: 1414976009148557648, guid: 7a2cd66a7fb7d0c429258345c00e3402,
    type: 3}
  m_PrefabInstance: {fileID: 1704695308}
  m_PrefabAsset: {fileID: 0}
--- !u!1001 &2107072212
PrefabInstance:
  m_ObjectHideFlags: 0
  serializedVersion: 2
  m_Modification:
    m_TransformParent: {fileID: 2750678588137356782}
    m_Modifications:
    - target: {fileID: 1414976009148069232, guid: 7a2cd66a7fb7d0c429258345c00e3402,
        type: 3}
      propertyPath: m_Name
      value: M_md_StallRoof2_1m_01_snaps009
      objectReference: {fileID: 0}
    - target: {fileID: 1414976009148557648, guid: 7a2cd66a7fb7d0c429258345c00e3402,
        type: 3}
      propertyPath: m_LocalPosition.x
      value: -65.82797
      objectReference: {fileID: 0}
    - target: {fileID: 1414976009148557648, guid: 7a2cd66a7fb7d0c429258345c00e3402,
        type: 3}
      propertyPath: m_LocalPosition.y
      value: 4.9489975
      objectReference: {fileID: 0}
    - target: {fileID: 1414976009148557648, guid: 7a2cd66a7fb7d0c429258345c00e3402,
        type: 3}
      propertyPath: m_LocalPosition.z
      value: -84.89602
      objectReference: {fileID: 0}
    - target: {fileID: 1414976009148557648, guid: 7a2cd66a7fb7d0c429258345c00e3402,
        type: 3}
      propertyPath: m_LocalRotation.x
      value: -0
      objectReference: {fileID: 0}
    - target: {fileID: 1414976009148557648, guid: 7a2cd66a7fb7d0c429258345c00e3402,
        type: 3}
      propertyPath: m_LocalRotation.y
      value: -1
      objectReference: {fileID: 0}
    - target: {fileID: 1414976009148557648, guid: 7a2cd66a7fb7d0c429258345c00e3402,
        type: 3}
      propertyPath: m_LocalRotation.z
      value: -0
      objectReference: {fileID: 0}
    - target: {fileID: 1414976009148557648, guid: 7a2cd66a7fb7d0c429258345c00e3402,
        type: 3}
      propertyPath: m_LocalRotation.w
      value: 0.0000019073484
      objectReference: {fileID: 0}
    - target: {fileID: 1414976009148557648, guid: 7a2cd66a7fb7d0c429258345c00e3402,
        type: 3}
      propertyPath: m_RootOrder
      value: 1
      objectReference: {fileID: 0}
    - target: {fileID: 1414976009148557648, guid: 7a2cd66a7fb7d0c429258345c00e3402,
        type: 3}
      propertyPath: m_LocalEulerAnglesHint.x
      value: 0
      objectReference: {fileID: 0}
    - target: {fileID: 1414976009148557648, guid: 7a2cd66a7fb7d0c429258345c00e3402,
        type: 3}
      propertyPath: m_LocalEulerAnglesHint.y
      value: 0
      objectReference: {fileID: 0}
    - target: {fileID: 1414976009148557648, guid: 7a2cd66a7fb7d0c429258345c00e3402,
        type: 3}
      propertyPath: m_LocalEulerAnglesHint.z
      value: 0
      objectReference: {fileID: 0}
    m_RemovedComponents: []
  m_SourcePrefab: {fileID: 100100000, guid: 7a2cd66a7fb7d0c429258345c00e3402, type: 3}
--- !u!4 &1414976007343486852 stripped
Transform:
  m_CorrespondingSourceObject: {fileID: 1414976009148557648, guid: 7a2cd66a7fb7d0c429258345c00e3402,
    type: 3}
  m_PrefabInstance: {fileID: 2107072212}
  m_PrefabAsset: {fileID: 0}
--- !u!1001 &2118634396
PrefabInstance:
  m_ObjectHideFlags: 0
  serializedVersion: 2
  m_Modification:
    m_TransformParent: {fileID: 2750678588137356782}
    m_Modifications:
    - target: {fileID: 4648168211748475687, guid: 246b2bc70015a85459edd16ab40e3d27,
        type: 3}
      propertyPath: m_Name
      value: M_md_StallRoof2_90cnr_01_snaps009
      objectReference: {fileID: 0}
    - target: {fileID: 4648168211747983111, guid: 246b2bc70015a85459edd16ab40e3d27,
        type: 3}
      propertyPath: m_LocalPosition.x
      value: -65.82797
      objectReference: {fileID: 0}
    - target: {fileID: 4648168211747983111, guid: 246b2bc70015a85459edd16ab40e3d27,
        type: 3}
      propertyPath: m_LocalPosition.y
      value: 4.9489975
      objectReference: {fileID: 0}
    - target: {fileID: 4648168211747983111, guid: 246b2bc70015a85459edd16ab40e3d27,
        type: 3}
      propertyPath: m_LocalPosition.z
      value: -82.89602
      objectReference: {fileID: 0}
    - target: {fileID: 4648168211747983111, guid: 246b2bc70015a85459edd16ab40e3d27,
        type: 3}
      propertyPath: m_LocalRotation.x
      value: -0
      objectReference: {fileID: 0}
    - target: {fileID: 4648168211747983111, guid: 246b2bc70015a85459edd16ab40e3d27,
        type: 3}
      propertyPath: m_LocalRotation.y
      value: -1
      objectReference: {fileID: 0}
    - target: {fileID: 4648168211747983111, guid: 246b2bc70015a85459edd16ab40e3d27,
        type: 3}
      propertyPath: m_LocalRotation.z
      value: -0
      objectReference: {fileID: 0}
    - target: {fileID: 4648168211747983111, guid: 246b2bc70015a85459edd16ab40e3d27,
        type: 3}
      propertyPath: m_LocalRotation.w
      value: 0.0000016689298
      objectReference: {fileID: 0}
    - target: {fileID: 4648168211747983111, guid: 246b2bc70015a85459edd16ab40e3d27,
        type: 3}
      propertyPath: m_RootOrder
      value: 0
      objectReference: {fileID: 0}
    - target: {fileID: 4648168211747983111, guid: 246b2bc70015a85459edd16ab40e3d27,
        type: 3}
      propertyPath: m_LocalEulerAnglesHint.x
      value: 0
      objectReference: {fileID: 0}
    - target: {fileID: 4648168211747983111, guid: 246b2bc70015a85459edd16ab40e3d27,
        type: 3}
      propertyPath: m_LocalEulerAnglesHint.y
      value: 0
      objectReference: {fileID: 0}
    - target: {fileID: 4648168211747983111, guid: 246b2bc70015a85459edd16ab40e3d27,
        type: 3}
      propertyPath: m_LocalEulerAnglesHint.z
      value: 0
      objectReference: {fileID: 0}
    m_RemovedComponents: []
  m_SourcePrefab: {fileID: 100100000, guid: 246b2bc70015a85459edd16ab40e3d27, type: 3}
--- !u!4 &4648168213463925915 stripped
Transform:
  m_CorrespondingSourceObject: {fileID: 4648168211747983111, guid: 246b2bc70015a85459edd16ab40e3d27,
    type: 3}
  m_PrefabInstance: {fileID: 2118634396}
  m_PrefabAsset: {fileID: 0}
